<?xml version="1.0" encoding="utf-8"?>
<!-- Generator: Adobe Illustrator 16.0.0, SVG Export Plug-In . SVG Version: 6.00 Build 0)  -->
<!DOCTYPE svg PUBLIC "-//W3C//DTD SVG 1.1//EN" "http://www.w3.org/Graphics/SVG/1.1/DTD/svg11.dtd">
<svg version="1.1" xmlns="http://www.w3.org/2000/svg" xmlns:xlink="http://www.w3.org/1999/xlink" x="0px" y="0px" width="87.5px"
	 height="94px" viewBox="0 0 87.5 94" enable-background="new 0 0 87.5 94" xml:space="preserve">
<g id="BT" display="none">
	<path display="inline" fill="#FFFFFF" d="M68.591,39.975l-4.547-6.059c-0.177-0.239-0.388-0.444-0.606-0.642v-7.243
		c0-1.673-1.357-3.031-3.03-3.031H30.094c-1.675,0-3.031,1.358-3.031,3.031v7.245c-0.218,0.195-0.429,0.399-0.606,0.636
		l-4.545,6.061C21.323,40.755,21,41.724,21,42.703v1.516c0,2.506,2.041,4.546,4.547,4.546l0,0v19.703
		c0,1.674,1.358,3.031,3.031,3.031h33.344c1.674,0,3.031-1.357,3.031-3.031V48.766c2.508,0,4.547-2.041,4.547-4.546v-1.516
		C69.5,41.724,69.178,40.755,68.591,39.975z M60.406,26.031v6.063H30.094v-6.063H60.406z M36.449,45.734H30.1l6.063-10.609h3.317
		L36.449,45.734z M41.058,35.125h3.435v10.609h-6.466L41.058,35.125z M46.008,35.125h3.434l3.031,10.609h-6.465V35.125z
		 M51.018,35.125h3.317l6.063,10.609h-6.351L51.018,35.125z M24.031,44.219v-1.516c0-0.329,0.106-0.647,0.303-0.91l4.547-6.063
		c0.287-0.382,0.735-0.606,1.212-0.606h4.323l-6.063,10.609h-2.807C24.71,45.734,24.031,45.057,24.031,44.219z M51.313,68.469
		H39.945V53.313h11.368V68.469L51.313,68.469z M61.922,68.469h-9.094V53.313c0-0.838-0.682-1.516-1.516-1.516H39.945
		c-0.836,0-1.516,0.678-1.516,1.516v15.156h-9.852V48.766h33.344L61.922,68.469L61.922,68.469z M66.469,44.219
		c0,0.838-0.678,1.516-1.516,1.516h-2.811L56.08,35.126h4.324c0.478,0,0.928,0.224,1.212,0.606l4.547,6.063
		c0.198,0.263,0.306,0.581,0.306,0.91V44.219L66.469,44.219z"/>
	<rect x="90.5" y="34.5" display="inline" fill="none" width="420" height="42"/>
</g>
<g id="BCC" display="none">
	<g id="Layer_3_1_" display="inline">
		<g>
			<path fill="#FFFFFF" d="M39.85,24.062c2.176,0,3.939,1.76,3.939,3.938c0,2.173-1.764,3.937-3.939,3.937S35.91,30.173,35.91,28
				C35.91,25.821,37.674,24.062,39.85,24.062z"/>
			<path fill="#FFFFFF" d="M67.171,28.333h-9.163c-1.891,0-4.33,0.777-5.778,2.23l-8.479,8.469v-2.481c0-5.289-7.797-5.231-7.797,0
				v10.12h0.01l-7.365,7.376c-0.696,0.691-0.781,0.725-2.149,0.725h-4.502c-4.532,0-7.252,4.069-7.252,7.527
				c0,3.455,2.721,7.817,7.653,7.817c0,0,6.133,0,8.029,0c1.896,0,4.187-0.726,6.082-2.507l23.496-23.427
				c0.501-0.447,0.781-0.584,1.645-0.584c0,0,3.239,0,5.801,0c2.793,0,6.746-3.166,6.746-7.729
				C74.146,31.356,70.164,28.345,67.171,28.333z M30.836,57.421l24.077-24.074c0.992-0.988,1.971-1.117,3.655-1.117h8.241
				c2.008,0,3.356,2.242,3.356,3.582c0,1.338-0.959,3.834-3.409,3.834h-4.962c-2.093,0-3.023,0.293-4.23,1.502L33.887,64.822
				c-0.957,0.959-2.168,1.338-3.729,1.338h-7.809c-2.004,0-3.774-1.692-3.774-3.924c0-2.229,1.688-3.479,3.431-3.479"/>
		</g>
	</g>
</g>
<g id="PD">
	<path fill="#FFFFFF" d="M69.5,43.834l-8.203-13.125c-1.195-1.917-3.3-3.084-5.563-3.084H24.563c-3.624,0-6.563,2.938-6.563,6.563
		v26.25C18,64.063,20.938,67,24.563,67h31.172c2.263,0,4.364-1.166,5.563-3.086L69.5,50.789
		C70.833,48.664,70.833,45.963,69.5,43.834z M66.72,49.051L58.517,62.18c-0.604,0.965-1.645,1.539-2.781,1.539H24.563
		c-1.811,0-3.281-1.473-3.281-3.281v-26.25c0-1.81,1.472-3.281,3.281-3.281h31.172c1.138,0,2.179,0.578,2.781,1.541l8.203,13.125
		C67.379,46.63,67.379,47.995,66.72,49.051z M55.734,42.391c-2.721,0-4.922,2.204-4.922,4.921c0,2.72,2.201,4.922,4.922,4.922
		c2.717,0,4.922-2.205,4.922-4.922C60.656,44.594,58.451,42.391,55.734,42.391z M55.734,50.596c-1.813,0-3.281-1.471-3.281-3.281
		c0-1.812,1.468-3.28,3.281-3.28c1.811,0,3.281,1.47,3.281,3.28C59.017,49.125,57.545,50.596,55.734,50.596z"/>
</g>
<g id="Noti" display="none">
	<path display="inline" fill="#FFFFFF" d="M57.328,23.5c-2.981,0-5.327,2.049-7.01,5.211l-0.031-0.017
		c-2.443,4.785-6.082,7.884-10.067,7.884H26.813c-3.259,0-5.813,3.193-5.813,7.266c0,4.076,2.554,7.265,5.813,7.265
		c1.603,0.009,2.898,1.306,2.898,2.906v13.078C29.712,68.7,31.015,70,32.618,70h5.813c1.604,0,2.905-1.3,2.905-2.906v-1.453
		c0-1.453-1.453-2.104-1.453-2.906V52.563c0-0.035,0.023-0.058,0.026-0.092c0.014-0.207,0.07-0.396,0.162-0.572
		c0.026-0.049,0.054-0.086,0.086-0.129c0.116-0.172,0.264-0.313,0.441-0.426c0.009-0.005,0.012-0.014,0.021-0.02
		c0.006,0,0.01-0.006,0.018-0.006c0.114-0.065,0.255-0.082,0.386-0.116c3.668,0.389,6.988,3.349,9.267,7.808l0.037-0.019
		c1.685,3.151,4.021,5.194,7.002,5.194c6.678,0,10.172-10.233,10.172-20.346C67.5,33.732,64.006,23.5,57.328,23.5z M50.063,43.844
		c0-1.507,0.088-2.963,0.236-4.359h4.121c1.604,0,2.906,1.953,2.906,4.359c0,2.41-1.304,4.359-2.906,4.359H50.3
		C50.15,46.807,50.063,45.354,50.063,43.844z M23.906,43.844c0-2.407,1.302-4.359,2.906-4.359h10.191
		c-0.9,1.06-1.474,2.597-1.474,4.359c0,1.766,0.573,3.303,1.474,4.359H26.813C25.208,48.203,23.906,46.253,23.906,43.844z
		 M38.432,67.094h-5.813V54.016c0-1.059-0.284-2.049-0.781-2.906h1.015v0.02h4.371c-0.155,0.453-0.245,0.934-0.245,1.438v10.172
		c0,1.398,0.78,2.33,1.248,2.888c0.063,0.075,0.14,0.153,0.205,0.241V67.094z M40.22,48.221h-0.328v-0.018
		c-1.604,0-2.906-1.95-2.906-4.359c0-2.407,1.302-4.359,2.906-4.359h0.328c2.739,0,5.306-1.079,7.563-2.933
		c-0.414,2.339-0.627,4.817-0.627,7.292c0,2.483,0.213,4.97,0.63,7.312C45.527,49.299,42.959,48.221,40.22,48.221z M57.328,61.281
		c-2.932,0-5.449-4.172-6.6-10.172h3.691c3.26,0,5.813-3.19,5.813-7.269c0-4.073-2.555-7.266-5.813-7.266h-3.691
		c1.148-5.997,3.668-10.172,6.6-10.172c4.013,0,7.267,7.808,7.267,17.438C64.595,53.473,61.341,61.281,57.328,61.281z"/>
</g>
</svg>
