<?xml version="1.0" encoding="utf-8"?>
<!-- Generator: Adobe Illustrator 16.0.0, SVG Export Plug-In . SVG Version: 6.00 Build 0)  -->
<!DOCTYPE svg PUBLIC "-//W3C//DTD SVG 1.1//EN" "http://www.w3.org/Graphics/SVG/1.1/DTD/svg11.dtd">
<svg version="1.1" xmlns="http://www.w3.org/2000/svg" xmlns:xlink="http://www.w3.org/1999/xlink" x="0px" y="0px" width="23px"
	 height="16.5px" viewBox="0 0 23 16.5" enable-background="new 0 0 23 16.5" xml:space="preserve">
<g id="reglas">
</g>
<g id="menu" display="none">
	<path display="inline" fill="#FFFFFF" d="M2.667,3.364c0-0.684,0.65-1.238,1.455-1.238h15.092c0.801,0,1.453,0.557,1.453,1.238
		s-0.652,1.238-1.453,1.238H4.122C3.317,4.603,2.667,4.046,2.667,3.364z M19.214,7.388H4.122c-0.805,0-1.455,0.555-1.455,1.238
		c0,0.682,0.65,1.238,1.455,1.238h15.092c0.801,0,1.453-0.557,1.453-1.238C20.667,7.942,20.017,7.388,19.214,7.388z M19.214,12.649
		H4.122c-0.803,0-1.455,0.553-1.455,1.237s0.65,1.238,1.455,1.238h15.092c0.801,0,1.453-0.554,1.453-1.238
		S20.017,12.649,19.214,12.649z"/>
</g>
<g id="cajero" display="none">
	<g display="inline">
		<path fill="#FFFFFF" d="M15.898,7.766l-0.662-2.785c-0.07-0.247-0.213-0.437-0.426-0.57c-0.211-0.132-0.441-0.163-0.689-0.093
			c-0.354,0.088-0.592,0.292-0.715,0.61C13,5.936,12.779,6.466,12.742,6.52c-0.018,0.053-0.053,0.098-0.105,0.132l-0.98,0.425
			c-0.196,0.089-0.292,0.239-0.292,0.451c0,0.142,0.048,0.261,0.146,0.358c0.098,0.097,0.215,0.146,0.358,0.146
			c0.053,0,0.115-0.008,0.186-0.026l1.168-0.478c0.123-0.07,0.23-0.176,0.318-0.318c0.035-0.036,0.113-0.204,0.238-0.504
			l0.689,2.971v4.615c0,0.247,0.074,0.45,0.225,0.61c0.15,0.159,0.34,0.238,0.57,0.238s0.42-0.079,0.57-0.238
			c0.15-0.16,0.227-0.354,0.227-0.584V8.854C16.059,8.535,16.006,8.173,15.898,7.766z"/>
		<path fill="#FFFFFF" d="M13.313,4.159c0.293,0,0.539-0.098,0.744-0.292c0.203-0.194,0.305-0.438,0.305-0.729
			c0-0.292-0.102-0.539-0.305-0.742c-0.205-0.204-0.451-0.305-0.744-0.305c-0.291,0-0.539,0.102-0.742,0.305
			c-0.203,0.203-0.305,0.451-0.305,0.742c0,0.292,0.102,0.535,0.305,0.729S13.021,4.159,13.313,4.159z"/>
		<path fill="#FFFFFF" d="M11.364,8.721L9.719,5.458C9.595,5.176,9.374,5.035,9.056,5.035H7.57c-0.212,0-0.389,0.075-0.53,0.225
			C6.899,5.41,6.828,5.583,6.828,5.777v5.703v3.66h4.615V9.093c0-0.142-0.035-0.266-0.106-0.372H11.364z M10.223,13.27
			c-0.212,0.238-0.521,0.394-0.929,0.465v0.557H8.871v-0.557c-0.354-0.036-0.637-0.164-0.849-0.385
			c-0.212-0.222-0.354-0.526-0.424-0.915l0.795-0.08c0.035,0.159,0.097,0.297,0.186,0.412c0.088,0.114,0.186,0.198,0.292,0.251
			v-1.246c-0.389-0.106-0.677-0.274-0.862-0.504c-0.186-0.23-0.278-0.505-0.278-0.822c0-0.318,0.106-0.589,0.318-0.809
			c0.212-0.221,0.486-0.35,0.822-0.386V8.96h0.424v0.291c0.318,0.036,0.575,0.142,0.77,0.319c0.194,0.176,0.318,0.415,0.371,0.716
			l-0.769,0.105c-0.054-0.247-0.177-0.406-0.372-0.477v1.14c0.495,0.142,0.826,0.314,0.995,0.518
			c0.168,0.203,0.252,0.464,0.252,0.782C10.542,12.726,10.435,13.031,10.223,13.27z"/>
		<path fill="#FFFFFF" d="M9.294,11.903v1.167c0.16-0.035,0.288-0.105,0.385-0.212c0.098-0.105,0.146-0.239,0.146-0.397
			c0-0.124-0.039-0.234-0.118-0.331C9.626,12.032,9.489,11.957,9.294,11.903z"/>
		<path fill="#FFFFFF" d="M8.579,10.087c-0.071,0.097-0.106,0.207-0.106,0.331c0,0.106,0.035,0.204,0.106,0.292
			c0.071,0.089,0.168,0.159,0.292,0.213V9.888C8.747,9.924,8.649,9.99,8.579,10.087z"/>
	</g>
</g>
<g id="lupa" display="none">
	<path display="inline" fill="#FFFFFF" d="M17.517,13.006L14.439,9.93c0.465-0.763,0.732-1.657,0.732-2.614
		c0-2.78-2.411-5.19-5.193-5.19c-2.78,0-5.035,2.255-5.035,5.036c0,2.781,2.41,5.191,5.191,5.191c0.924,0,1.79-0.25,2.535-0.685
		l3.093,3.091c0.303,0.303,0.794,0.303,1.095,0l0.768-0.766C17.929,13.689,17.817,13.309,17.517,13.006L17.517,13.006z M6.495,7.159
		c0-1.925,1.56-3.485,3.485-3.485s3.641,1.716,3.641,3.642S12.061,10.8,10.136,10.8C8.209,10.8,6.495,9.085,6.495,7.159z"/>
</g>
<g id="cerrar">
	<g>
		<path fill="#434444" d="M6.337,2.523c-0.431,0.494-0.464,1.18,0,1.784L9.953,8.73l-3.618,4.422c-0.463,0.603-0.43,1.288,0,1.782
			c0.43,0.494,1.156,0.461,1.56,0c0.403-0.461,4.344-5.313,4.344-5.313c0.216-0.246,0.323-0.569,0.323-0.892
			c0-0.323-0.107-0.646-0.323-0.893c0,0-3.941-4.852-4.344-5.313C7.491,2.063,6.768,2.031,6.337,2.523z"/>
		<path fill="#434444" d="M16.355,2.398c-0.403,0.461-4.345,5.313-4.345,5.313c-0.216,0.247-0.323,0.569-0.323,0.893
			c0,0.322,0.107,0.646,0.323,0.892c0,0,3.941,4.853,4.345,5.313s1.129,0.494,1.56,0c0.43-0.494,0.463-1.18,0-1.782l-3.618-4.422
			l3.615-4.422c0.465-0.604,0.432-1.291,0-1.784C17.482,1.906,16.759,1.938,16.355,2.398z"/>
	</g>
</g>
</svg>
