<?xml version="1.0" encoding="utf-8"?>
<!-- Generator: Adobe Illustrator 16.0.0, SVG Export Plug-In . SVG Version: 6.00 Build 0)  -->
<!DOCTYPE svg PUBLIC "-//W3C//DTD SVG 1.1//EN" "http://www.w3.org/Graphics/SVG/1.1/DTD/svg11.dtd">
<svg version="1.1" id="Layer_1" xmlns="http://www.w3.org/2000/svg" xmlns:xlink="http://www.w3.org/1999/xlink" x="0px" y="0px"
	 width="34px" height="34px" viewBox="0 0 34 34" enable-background="new 0 0 34 34" xml:space="preserve">
<path fill="#FFFFFF" d="M24.486,5.617H8.898c-2.144,0-3.897,1.753-3.897,3.897v15.587c0,2.146,1.753,3.897,3.897,3.897h15.588
	c2.144,0,3.896-1.752,3.896-3.897V9.515C28.383,7.371,26.63,5.617,24.486,5.617z M24.88,17.309h-3.804v10.229h-4.385V17.309h-2.112
	v-3.347h2.112v-2.173c0-2.954,1.273-4.71,4.747-4.71h4.001V10.7h-3.268c-0.97-0.001-1.091,0.506-1.091,1.45l-0.005,1.813h4.384
	L24.88,17.309L24.88,17.309z"/>
</svg>
