<?xml version="1.0" encoding="utf-8"?>
<!-- Generator: Adobe Illustrator 16.0.0, SVG Export Plug-In . SVG Version: 6.00 Build 0)  -->
<!DOCTYPE svg PUBLIC "-//W3C//DTD SVG 1.1//EN" "http://www.w3.org/Graphics/SVG/1.1/DTD/svg11.dtd">
<svg version="1.1" xmlns="http://www.w3.org/2000/svg" xmlns:xlink="http://www.w3.org/1999/xlink" x="0px" y="0px" width="49.5px"
	 height="49.5px" viewBox="0 0 49.5 49.5" enable-background="new 0 0 49.5 49.5" xml:space="preserve">
<g id="reglas">
</g>
<g id="ciudad" display="none">
	<path display="inline" fill="#FFFFFF" d="M7.25,42.25h17.5v-35H7.25V42.25z M18.188,11.625h4.375V16h-4.375V11.625z M18.188,20.375
		h4.375v4.375h-4.375V20.375z M18.188,29.125h4.375v4.376h-4.375V29.125z M9.438,11.625h4.375V16H9.438V11.625z M9.438,20.375h4.375
		v4.375H9.438V20.375z M9.438,29.125h4.375v4.376H9.438V29.125z M26.938,18.188H42.25v2.188H26.938V18.188z M26.938,42.25h4.377
		V33.5h6.562v8.75h4.375V22.562H26.938V42.25z"/>
</g>
<g id="Artesanías" display="none">
	<g display="inline">
		<path fill="#FFFFFF" d="M26.63,21.174c-0.136-0.392-0.29-0.755-0.448-1.117c1.531-1.346,3.584-1.999,6.166-1.917
			c0.299,0.001,0.542-0.224,0.551-0.521c0.011-0.295-0.224-0.542-0.519-0.551c-2.753-0.081-4.978,0.602-6.68,1.999
			c-1.504-2.829-3.754-4.546-6.735-5.073c-0.287-0.055-0.57,0.142-0.621,0.434c-0.051,0.292,0.143,0.57,0.434,0.622
			c2.719,0.481,4.763,2.097,6.116,4.78c-0.399,0.429-0.775,0.89-1.098,1.418c-0.596,0.965-1.018,2.069-1.325,3.243
			c-0.459-0.62-0.979-1.156-1.583-1.566c-1.911-1.307-4.34-1.243-7.214,0.186c-0.265,0.134-0.374,0.455-0.241,0.72
			c0.131,0.264,0.455,0.372,0.718,0.241c2.501-1.248,4.563-1.333,6.133-0.262c0.744,0.509,1.353,1.273,1.861,2.19
			c-0.986,5.929,0.755,13.154,2.182,15.825c0.001,0,0.001,0,0.002,0.002c0.003,0.006,0.008,0.018,0.012,0.024
			c0.006,0.011,0.021,0.018,0.027,0.028c0.02,0.029,0.038,0.06,0.063,0.086c0.01,0.008,0.014,0.021,0.022,0.028
			c0.019,0.018,0.04,0.021,0.059,0.035c0.003,0.002,0.005,0.004,0.009,0.006c0.01,0.008,0.019,0.021,0.029,0.022
			c0.013,0.01,0.026,0.014,0.042,0.02c0.037,0.019,0.075,0.026,0.114,0.035c0.021,0.004,0.036,0.015,0.057,0.017
			c0.018,0.001,0.031,0.002,0.049,0.002l0,0l0,0h0.002c0.071,0,0.141-0.016,0.205-0.043c0.011-0.004,0.019-0.012,0.026-0.017
			c0.006-0.003,0.014-0.001,0.021-0.004c0.017-0.01,0.024-0.025,0.042-0.036c0.027-0.021,0.059-0.04,0.082-0.065
			c0.006-0.005,0.015-0.007,0.021-0.014c0.002-0.005,0.008-0.012,0.012-0.016c0.006-0.009,0.012-0.018,0.018-0.025
			C26.984,39.879,29.277,28.85,26.63,21.174z M24.705,21.812c0.202-0.328,0.426-0.633,0.658-0.917
			c0.083,0.211,0.176,0.409,0.251,0.63c1.938,5.61,1.022,13.297-0.148,17.276c0.044-3.439-0.225-9.228-2.214-13.042
			C23.537,24.314,23.998,22.96,24.705,21.812z M22.965,27.867c1.229,3.49,1.487,8.129,1.429,11.297
			C23.44,36.289,22.64,31.904,22.965,27.867z"/>
		<path fill="#FFFFFF" d="M31.745,20.744c0-0.849-0.691-1.542-1.542-1.542c-0.849,0-1.542,0.691-1.542,1.542
			c0,0.85,0.691,1.542,1.542,1.542S31.745,21.593,31.745,20.744z M30.205,21.749c-0.555,0-1.005-0.451-1.005-1.006
			c0-0.556,0.451-1.006,1.005-1.006c0.555,0,1.006,0.45,1.006,1.006C31.211,21.298,30.758,21.749,30.205,21.749z"/>
		<path fill="#FFFFFF" d="M36.371,21.253c0-0.849-0.691-1.542-1.542-1.542c-0.85,0-1.541,0.692-1.541,1.542
			c0,0.851,0.691,1.542,1.541,1.542C35.68,22.795,36.371,22.102,36.371,21.253z M33.824,21.253c0-0.554,0.452-1.006,1.006-1.006
			c0.555,0,1.007,0.45,1.007,1.006s-0.452,1.006-1.007,1.006C34.276,22.259,33.824,21.807,33.824,21.253z"/>
		<path fill="#FFFFFF" d="M38.306,16.554c-0.85,0-1.542,0.692-1.542,1.542c0,0.851,0.692,1.542,1.542,1.542s1.542-0.692,1.542-1.542
			C39.848,17.246,39.156,16.554,38.306,16.554z M38.306,19.101c-0.555,0-1.006-0.45-1.006-1.006c0-0.555,0.451-1.006,1.006-1.006
			s1.006,0.451,1.006,1.006C39.312,18.65,38.86,19.101,38.306,19.101z"/>
		<path fill="#FFFFFF" d="M31.478,16.064c0.851,0,1.542-0.692,1.542-1.543c0-0.85-0.692-1.542-1.542-1.542s-1.543,0.692-1.543,1.542
			C29.935,15.372,30.627,16.064,31.478,16.064z M31.478,13.518c0.554,0,1.006,0.45,1.006,1.005s-0.452,1.006-1.006,1.006
			s-1.007-0.451-1.007-1.006S30.924,13.518,31.478,13.518z"/>
		<path fill="#FFFFFF" d="M24.81,13.932c0.851,0,1.542-0.692,1.542-1.542s-0.693-1.542-1.542-1.542c-0.85,0-1.542,0.692-1.542,1.542
			S23.959,13.932,24.81,13.932z M24.81,11.385c0.556,0,1.006,0.451,1.006,1.006c0,0.556-0.451,1.006-1.006,1.006
			c-0.553,0-1.006-0.45-1.006-1.006C23.804,11.836,24.257,11.385,24.81,11.385z"/>
		<path fill="#FFFFFF" d="M20.143,10.615c0.851,0,1.542-0.692,1.542-1.542c0-0.851-0.691-1.542-1.542-1.542
			c-0.85,0-1.542,0.691-1.542,1.542C18.601,9.922,19.292,10.615,20.143,10.615z M20.143,8.068c0.555,0,1.006,0.45,1.006,1.005
			c0,0.556-0.452,1.006-1.006,1.006c-0.554,0-1.006-0.451-1.006-1.006C19.137,8.518,19.589,8.068,20.143,8.068z"/>
		<path fill="#FFFFFF" d="M16.375,13.518c0.85,0,1.542-0.692,1.542-1.542c0-0.851-0.692-1.542-1.542-1.542
			c-0.851,0-1.542,0.691-1.542,1.542C14.833,12.825,15.524,13.518,16.375,13.518z M16.375,10.971c0.555,0,1.006,0.45,1.006,1.005
			c0,0.556-0.451,1.006-1.006,1.006s-1.006-0.451-1.006-1.006C15.369,11.421,15.821,10.971,16.375,10.971z"/>
		<path fill="#FFFFFF" d="M13.099,17.337c0.851,0,1.542-0.691,1.542-1.542s-0.691-1.542-1.542-1.542
			c-0.85,0-1.542,0.692-1.542,1.542S12.249,17.337,13.099,17.337z M13.099,14.791c0.555,0,1.006,0.451,1.006,1.006
			c0,0.555-0.451,1.005-1.006,1.005c-0.554,0-1.006-0.451-1.006-1.005C12.093,15.242,12.545,14.791,13.099,14.791z"/>
		<path fill="#FFFFFF" d="M14.373,24.909c-0.85,0-1.542,0.691-1.542,1.542s0.692,1.541,1.542,1.541c0.851,0,1.542-0.69,1.542-1.541
			S15.223,24.909,14.373,24.909z M14.373,27.455c-0.554,0-1.006-0.45-1.006-1.006c0-0.555,0.452-1.007,1.006-1.007
			c0.555,0,1.006,0.453,1.006,1.007C15.378,27.005,14.927,27.455,14.373,27.455z"/>
		<path fill="#FFFFFF" d="M18.148,15.528c-0.851,0-1.542,0.691-1.542,1.541c0,0.851,0.691,1.542,1.542,1.542
			c0.85,0,1.542-0.692,1.542-1.542C19.69,16.219,18.999,15.528,18.148,15.528z M18.148,18.075c-0.555,0-1.006-0.451-1.006-1.006
			c0-0.555,0.451-1.006,1.006-1.006c0.554,0,1.006,0.451,1.006,1.006C19.154,17.624,18.703,18.075,18.148,18.075z"/>
		<path fill="#FFFFFF" d="M10.941,19.711c-0.851,0-1.542,0.692-1.542,1.542c0,0.851,0.691,1.542,1.542,1.542
			s1.542-0.691,1.542-1.542C12.483,20.403,11.792,19.711,10.941,19.711z M10.941,22.258c-0.554,0-1.005-0.451-1.005-1.006
			c0-0.556,0.451-1.006,1.005-1.006s1.006,0.45,1.006,1.006C11.947,21.807,11.495,22.258,10.941,22.258z"/>
		<path fill="#FFFFFF" d="M19.628,12.391c0,0.714,0.58,1.294,1.294,1.294s1.295-0.581,1.295-1.294c0-0.714-0.581-1.295-1.295-1.295
			S19.628,11.677,19.628,12.391z M21.682,12.391c0,0.418-0.34,0.758-0.759,0.758c-0.418,0-0.758-0.34-0.758-0.758
			s0.34-0.759,0.758-0.759C21.342,11.632,21.682,11.973,21.682,12.391z"/>
		<path fill="#FFFFFF" d="M18.849,20.396c0,0.714,0.58,1.294,1.293,1.294c0.714,0,1.295-0.582,1.295-1.294
			c0-0.714-0.581-1.295-1.295-1.295C19.429,19.101,18.849,19.682,18.849,20.396z M20.143,19.637c0.419,0,0.759,0.34,0.759,0.759
			c0,0.418-0.34,0.758-0.759,0.758c-0.417,0-0.757-0.34-0.757-0.758C19.385,19.978,19.725,19.637,20.143,19.637z"/>
		<path fill="#FFFFFF" d="M17.648,24.09c-0.6,0-1.087,0.487-1.087,1.087c0,0.601,0.488,1.088,1.087,1.088
			c0.601,0,1.089-0.487,1.089-1.088C18.736,24.577,18.247,24.09,17.648,24.09z M17.648,25.728c-0.304,0-0.551-0.247-0.551-0.551
			c0-0.305,0.247-0.553,0.551-0.553c0.304,0,0.553,0.248,0.553,0.553C18.201,25.48,17.952,25.728,17.648,25.728z"/>
		<path fill="#FFFFFF" d="M10.458,16.042c0-0.6-0.489-1.088-1.09-1.088c-0.6,0-1.087,0.488-1.087,1.088s0.487,1.088,1.087,1.088
			S10.458,16.642,10.458,16.042z M8.817,16.042c0-0.304,0.247-0.552,0.551-0.552c0.305,0,0.554,0.248,0.554,0.552
			c0,0.305-0.248,0.552-0.554,0.552C9.065,16.594,8.817,16.347,8.817,16.042z"/>
		<path fill="#FFFFFF" d="M32.36,22.489c-0.601,0-1.087,0.488-1.087,1.088s0.486,1.087,1.087,1.087s1.09-0.487,1.09-1.087
			S32.961,22.489,32.36,22.489z M32.36,24.128c-0.303,0-0.551-0.246-0.551-0.551s0.246-0.552,0.551-0.552
			c0.306,0,0.554,0.247,0.554,0.552S32.666,24.128,32.36,24.128z"/>
		<path fill="#FFFFFF" d="M38.304,20.335c-0.599,0-1.087,0.488-1.087,1.088c0,0.599,0.488,1.087,1.087,1.087
			c0.602,0,1.091-0.488,1.091-1.087C39.395,20.823,38.905,20.335,38.304,20.335z M38.304,21.974c-0.303,0-0.551-0.247-0.551-0.552
			c0-0.304,0.246-0.552,0.551-0.552c0.306,0,0.555,0.248,0.555,0.552C38.858,21.727,38.609,21.974,38.304,21.974z"/>
		<path fill="#FFFFFF" d="M15.102,19.101c-0.714,0-1.294,0.581-1.294,1.295c0,0.714,0.58,1.294,1.294,1.294s1.295-0.582,1.295-1.294
			C16.397,19.682,15.816,19.101,15.102,19.101z M15.102,21.154c-0.418,0-0.758-0.34-0.758-0.758c0-0.418,0.34-0.759,0.758-0.759
			c0.419,0,0.759,0.34,0.759,0.759C15.861,20.813,15.521,21.154,15.102,21.154z"/>
		<path fill="#FFFFFF" d="M10.396,24.128c-0.714,0-1.294,0.582-1.294,1.295s0.58,1.295,1.294,1.295s1.295-0.582,1.295-1.295
			C11.691,24.708,11.11,24.128,10.396,24.128z M10.396,26.181c-0.418,0-0.758-0.34-0.758-0.758s0.34-0.759,0.758-0.759
			c0.419,0,0.759,0.34,0.759,0.759C11.155,25.841,10.815,26.181,10.396,26.181z"/>
		<path fill="#FFFFFF" d="M35.037,18.364c0.714,0,1.294-0.581,1.294-1.294c0-0.714-0.58-1.295-1.294-1.295
			c-0.715,0-1.295,0.581-1.295,1.295C33.742,17.783,34.322,18.364,35.037,18.364z M35.037,16.311c0.419,0,0.758,0.34,0.758,0.759
			c0,0.418-0.339,0.758-0.758,0.758c-0.42,0-0.759-0.34-0.759-0.758C34.278,16.652,34.619,16.311,35.037,16.311z"/>
		<path fill="#FFFFFF" d="M36.063,23.101c-0.715,0-1.295,0.582-1.295,1.295c0,0.714,0.58,1.295,1.295,1.295
			c0.714,0,1.296-0.582,1.296-1.295C37.359,23.683,36.777,23.101,36.063,23.101z M36.063,25.155c-0.419,0-0.759-0.34-0.759-0.758
			c0-0.417,0.34-0.759,0.759-0.759c0.42,0,0.76,0.34,0.76,0.759C36.823,24.814,36.483,25.155,36.063,25.155z"/>
		<path fill="#FFFFFF" d="M27.903,16.064c0.714,0,1.296-0.582,1.296-1.294c0-0.714-0.582-1.295-1.296-1.295
			s-1.294,0.581-1.294,1.295C26.609,15.484,27.189,16.064,27.903,16.064z M27.903,14.012c0.419,0,0.759,0.34,0.759,0.759
			c0,0.418-0.34,0.758-0.759,0.758s-0.758-0.34-0.758-0.758C27.146,14.352,27.484,14.012,27.903,14.012z"/>
		<path fill="#FFFFFF" d="M28.308,11.641c0.714,0,1.295-0.582,1.295-1.294c0-0.714-0.581-1.295-1.295-1.295
			s-1.294,0.581-1.294,1.295C27.014,11.061,27.594,11.641,28.308,11.641z M28.308,9.588c0.419,0,0.759,0.34,0.759,0.759
			c0,0.418-0.34,0.758-0.759,0.758s-0.758-0.34-0.758-0.758C27.55,9.928,27.889,9.588,28.308,9.588z"/>
		<path fill="#FFFFFF" d="M32.49,10.971c0.851,0,1.541-0.692,1.541-1.542s-0.693-1.542-1.541-1.542
			c-0.851,0-1.543,0.692-1.543,1.542S31.64,10.971,32.49,10.971z M32.49,8.424c0.555,0,1.005,0.45,1.005,1.005
			c0,0.556-0.451,1.006-1.005,1.006c-0.556,0-1.007-0.451-1.007-1.006C31.484,8.874,31.938,8.424,32.49,8.424z"/>
		<path fill="#FFFFFF" d="M36.103,14.791c0.851,0,1.543-0.691,1.543-1.542c0-0.851-0.692-1.542-1.543-1.542
			c-0.848,0-1.541,0.691-1.541,1.542C34.562,14.1,35.253,14.791,36.103,14.791z M36.103,12.244c0.557,0,1.007,0.451,1.007,1.006
			c0,0.555-0.451,1.005-1.007,1.005c-0.554,0-1.005-0.45-1.005-1.005C35.098,12.695,35.549,12.244,36.103,12.244z"/>
	</g>
</g>
<g id="Automóviles" display="none">
	<path display="inline" fill="#FFFFFF" d="M42.5,18.778h-4.665l-0.282-3.288c0-2.655-2.157-4.813-4.813-4.813H16.699
		c-2.655,0-4.813,2.158-4.813,4.813l-0.143,3.288H6.94v2.726l4.333,0.303c-0.995,0.708-1.633,1.778-1.633,2.986v5.453
		c0,1.354,0.805,2.544,2.022,3.229v3.666c0,1.239,1.441,2.246,3.22,2.246c1.775,0,3.216-1.007,3.216-2.246v-3.044H30.79v3.044
		c0,1.239,1.438,2.246,3.217,2.246c1.776,0,3.215-1.007,3.215-2.246v-3.405c1.521-0.606,2.574-1.938,2.574-3.497v-5.45
		c0-1.209-0.639-2.278-1.632-2.986l4.336-0.301V18.778z M11.781,21.872l0.007-0.065C11.808,21.826,11.817,21.851,11.781,21.872z
		 M13.811,15.49c0-1.594,1.294-2.888,2.885-2.888h16.042c1.595,0,2.892,1.294,2.892,2.888v5.467
		c-0.083-0.007-0.159-0.012-0.245-0.012H14.052c-0.083,0-0.163,0.004-0.242,0.012V15.49z M18.384,27.227
		c0,1.503-1.22,2.72-2.719,2.72c-1.502,0-2.72-1.217-2.72-2.72c0-1.5,1.218-2.721,2.72-2.721
		C17.165,24.506,18.384,25.727,18.384,27.227z M36.527,27.227c0,1.503-1.223,2.72-2.721,2.72c-1.497,0-2.72-1.217-2.72-2.72
		c0-1.5,1.224-2.721,2.72-2.721C35.309,24.506,36.527,25.727,36.527,27.227z"/>
</g>
<g id="Bancos" display="none">
	<path display="inline" fill="#FFFFFF" d="M24.668,7.667c-9.39,0-17.001,7.611-17.001,17c0,9.389,7.611,17,17.001,17
		c9.388,0,16.999-7.611,16.999-17C41.667,15.278,34.056,7.667,24.668,7.667z M24.668,38.268c-7.512,0-13.601-6.09-13.601-13.601
		c0-7.51,6.089-13.6,13.601-13.6c7.51,0,13.6,6.089,13.6,13.6C38.268,32.178,32.178,38.268,24.668,38.268z M25.801,23.534V19h4.533
		v-2.267h-4.533v-2.267h-2.267v2.267H19v9.067h4.533v4.533H19v2.267h4.533v2.267h2.267v-2.267h4.533v-9.067H25.801z M23.534,23.534
		h-2.267V19h2.267V23.534z M28.067,30.334h-2.267v-4.533h2.267V30.334z"/>
</g>
<g id="Baños" display="none">
	<g display="inline">
		<path fill="#FFFFFF" d="M9.932,14.611c0,1.177,0.536,2.268,1.471,2.995c0.673,0.522,1.476,0.799,2.322,0.799
			c0.846,0,1.648-0.276,2.321-0.799c0.936-0.727,1.471-1.818,1.471-2.995c0-2.091-1.701-3.792-3.792-3.792
			C11.633,10.818,9.932,12.52,9.932,14.611z M13.725,12.682c1.063,0,1.929,0.866,1.929,1.929c0,0.598-0.273,1.152-0.75,1.523
			c-0.685,0.532-1.671,0.532-2.357,0c-0.478-0.371-0.751-0.925-0.751-1.523C11.795,13.547,12.661,12.682,13.725,12.682z"/>
		<path fill="#FFFFFF" d="M8.875,31.149c0.073,0.034,0.15,0.061,0.228,0.09c0.039,0.014,0.075,0.032,0.115,0.045v2.845v0.021v1.875
			c0,1.216,1.078,2.206,2.403,2.206h0.219c0.736,0,1.396-0.304,1.836-0.784c0.436,0.54,1.131,0.892,1.914,0.892h0.216
			c1.315,0,2.385-0.991,2.385-2.207v-2v-2.887c0.077-0.027,0.148-0.063,0.221-0.098c0.031-0.014,0.065-0.026,0.096-0.041
			c0.067-0.037,0.128-0.078,0.19-0.117c0.034-0.021,0.07-0.04,0.103-0.063c0.057-0.04,0.106-0.09,0.158-0.133
			c0.033-0.027,0.069-0.054,0.099-0.084c0.049-0.045,0.089-0.097,0.133-0.148c0.028-0.034,0.06-0.062,0.086-0.096
			c0.04-0.054,0.073-0.112,0.108-0.169c0.022-0.036,0.048-0.067,0.068-0.105c0.034-0.063,0.059-0.129,0.086-0.193
			c0.014-0.035,0.032-0.065,0.044-0.101c0.025-0.07,0.04-0.146,0.056-0.22c0.007-0.031,0.019-0.061,0.023-0.093
			c0.018-0.106,0.028-0.217,0.028-0.329v-7.489c0-1.746-1.854-3.275-3.055-3.416l-0.448-0.04l-0.316,0.304
			c-0.167,0.159-0.355,0.302-0.558,0.425c-1.022,0.61-2.345,0.568-3.318-0.087c-0.137-0.092-0.277-0.207-0.415-0.337l-0.258-0.258
			l-0.443-0.021c-1.398,0-3.271,1.696-3.271,3.431v7.486c0,0.117,0.011,0.23,0.031,0.342c0.008,0.05,0.026,0.099,0.039,0.145
			c0.015,0.061,0.027,0.122,0.048,0.181c0.019,0.052,0.046,0.1,0.069,0.149c0.024,0.054,0.043,0.107,0.072,0.157
			c0.031,0.055,0.071,0.104,0.106,0.156c0.029,0.041,0.052,0.084,0.083,0.124c0.043,0.053,0.094,0.102,0.143,0.151
			c0.031,0.032,0.059,0.068,0.092,0.1c0.06,0.055,0.127,0.104,0.193,0.151c0.028,0.021,0.053,0.045,0.081,0.063
			c0.078,0.052,0.161,0.097,0.244,0.14C8.831,31.124,8.852,31.138,8.875,31.149z M9.47,21.765c0-0.589,0.733-1.268,1.18-1.491
			c0.102,0.081,0.203,0.155,0.306,0.224c1.559,1.049,3.68,1.114,5.313,0.139c0.162-0.096,0.317-0.201,0.465-0.314
			c0.467,0.266,1.094,0.911,1.094,1.443v7.486c0,0.081-0.147,0.224-0.388,0.273c-0.037,0.007-0.074,0.01-0.107,0.012l-0.946,0.024
			l-0.002,0.097l-0.049,0.001l-0.018,0.895c0,0.014-0.001,0.063-0.001,0.136l-0.019,0.083l0.019,0.129
			c0.002,0.769,0.01,2.59,0.012,3.233v1.997c0,0.163-0.223,0.344-0.521,0.344h-0.216c-0.298,0-0.521-0.181-0.521-0.344V30.79h-2.688
			v5.234c0,0.161-0.232,0.344-0.541,0.344h-0.219c-0.309,0-0.54-0.183-0.54-0.344l0.008-5.187l0.022-0.22l-0.042-1.139l-0.954,0.055
			h-0.013c-0.062,0-0.182,0-0.213-0.003c-0.26-0.04-0.42-0.191-0.42-0.28V21.765z"/>
		<path fill="#FFFFFF" d="M38.913,35.51v-4.591c0.233-0.039,0.557-0.089,1.003-0.154c0.134-0.02,0.223-0.033,0.237-0.036
			c1.106-0.224,1.88-1.087,1.88-2.099l-1.624-7.597c-0.076-1.698-1.876-3.167-3.054-3.305l-0.447-0.04l-0.316,0.303
			c-0.167,0.16-0.354,0.303-0.558,0.426c-1.022,0.61-2.347,0.567-3.318-0.086c-0.125-0.085-0.253-0.188-0.407-0.331l-0.248-0.265
			L31.6,17.714c-1.368,0-3.192,1.625-3.27,3.319l-1.603,7.4l-0.021,0.196c0,1.046,0.836,1.937,1.985,2.121
			c0.11,0.017,0.222,0.027,0.337,0.03l0.1,0.006c0.008,0,0.396-0.002,0.812-0.004v4.62c0,1.216,1.077,2.207,2.404,2.207h0.22
			c0.735,0,1.394-0.307,1.837-0.786c0.434,0.54,1.129,0.891,1.911,0.891h0.218C37.844,37.715,38.913,36.726,38.913,35.51z
			 M37.071,29.922l-0.053,0.227l0.031,0.208v5.153c0,0.162-0.223,0.343-0.521,0.343h-0.217c-0.298,0-0.521-0.181-0.521-0.343v-5.341
			h-2.688v5.234c0,0.161-0.23,0.342-0.54,0.342h-0.22c-0.31,0-0.542-0.181-0.542-0.342l0.009-5.183l0.025-0.224l-0.055-1.103
			l-0.935,0.02c-0.114,0.003-1.428,0.008-1.678,0.01l-0.064-0.003c-0.039-0.002-0.075-0.004-0.114-0.011
			c-0.221-0.034-0.367-0.146-0.409-0.233l1.59-7.335l0.02-0.197c0-0.59,0.733-1.268,1.182-1.491c0.099,0.08,0.201,0.155,0.303,0.224
			c1.56,1.048,3.682,1.115,5.314,0.139c0.161-0.095,0.314-0.199,0.466-0.314c0.467,0.266,1.093,0.912,1.093,1.443l1.61,7.531
			c-0.039,0.081-0.172,0.188-0.352,0.224l-0.159,0.022C37.728,29.201,37.271,29.267,37.071,29.922z"/>
		<path fill="#FFFFFF" d="M34.447,10.197c-2.092,0-3.793,1.701-3.793,3.792c0,1.177,0.536,2.268,1.471,2.996
			c0.674,0.522,1.476,0.798,2.322,0.798s1.649-0.276,2.323-0.799c0.934-0.727,1.47-1.818,1.47-2.995
			C38.24,11.898,36.539,10.197,34.447,10.197z M35.626,15.513c-0.686,0.533-1.672,0.533-2.357,0c-0.478-0.371-0.75-0.925-0.75-1.523
			c0-1.064,0.866-1.929,1.929-1.929c1.063,0,1.929,0.866,1.929,1.929C36.376,14.587,36.103,15.143,35.626,15.513z"/>
		<path fill="#FFFFFF" d="M24.725,40.86V8.563c0-0.514-0.417-0.932-0.932-0.932s-0.932,0.417-0.932,0.932V40.86
			c0,0.515,0.417,0.933,0.932,0.933S24.725,41.375,24.725,40.86z"/>
	</g>
</g>
<g id="Belleza" display="none">
	<g display="inline">
		<circle fill="#FFFFFF" cx="33.174" cy="27.756" r="0.928"/>
		<path fill="#FFFFFF" d="M36.385,26.895c1.148-1.213,0.957-2.25,0.43-2.779c-0.664-0.661-1.778-0.518-2.778,0.431
			c-0.341-1.132-1.038-1.802-1.818-1.807v-3.226c0.382-0.112,0.654-0.395,0.654-0.73s-0.272-0.617-0.654-0.73v-0.056h-0.352H19.717
			l-0.96-1.665c0.239-0.138,0.356-0.386,0.263-0.551c-0.095-0.165-0.369-0.187-0.608-0.048l-4.477-7.754
			c0.239-0.139,0.357-0.386,0.262-0.551c-0.095-0.165-0.368-0.187-0.607-0.048l-3.486,2.012C9.865,9.53,9.748,9.778,9.842,9.942
			c0.095,0.165,0.368,0.187,0.608,0.048l4.477,7.754c-0.113,0.066-0.197,0.157-0.245,0.252h-0.42H13.91v0.056
			c-0.38,0.113-0.654,0.396-0.654,0.73s0.274,0.618,0.654,0.729v6.532c0,6.898,2.808,9.114,6.64,9.675v1.876
			c-2.929,0.282-5.03,1.079-5.03,2.33h14.828c0.426,0.503,0.946,0.787,1.521,0.787c0.151,0,0.309-0.021,0.461-0.063
			c0.604-0.16,1.056-0.604,1.271-1.248c0.211-0.627,0.194-1.409-0.051-2.324l-0.035-0.124l0.125,0.036
			c0.484,0.13,0.939,0.195,1.354,0.195c1.151,0,1.979-0.529,2.215-1.416c0.251-0.938-0.247-2.246-2.479-2.845l-0.129-0.03
			l0.094-0.092c0.101-0.099,0.17-0.193,0.258-0.291c0.255-0.177,0.453-0.434,0.568-0.765c0.344-0.595,0.457-1.134,0.405-1.591
			c0.16,0.021,0.332,0.062,0.479,0.062c0.902,0,1.554-0.422,1.74-1.13C38.337,28.367,37.984,27.373,36.385,26.895z M29.105,38.363
			l0.256-0.228l0.092-0.098l0.031,0.129c0.043,0.158,0.093,0.306,0.145,0.449C29.473,38.527,29.296,38.443,29.105,38.363z
			 M36.719,35.639c-0.226,0.854-1.244,1.322-2.949,0.865c-0.521-0.141-1.021-0.426-1.468-0.76c0.335,0.447,0.62,0.947,0.761,1.466
			c0.457,1.708-0.012,2.726-0.863,2.954c-0.854,0.229-1.771-0.419-2.227-2.125c-0.141-0.52-0.143-1.098-0.078-1.65
			c-0.221,0.514-0.51,1.014-0.89,1.394c-1.25,1.248-2.364,1.353-2.989,0.726c-0.625-0.625-0.521-1.74,0.729-2.988
			c0.381-0.379,0.875-0.67,1.389-0.891c-0.551,0.064-1.13,0.063-1.646-0.074c-1.709-0.457-2.355-1.373-2.127-2.227
			c0.229-0.854,1.246-1.324,2.955-0.867c0.52,0.141,1.021,0.43,1.466,0.762c-0.331-0.447-0.619-0.947-0.759-1.467
			c-0.416-1.542-0.068-2.515,0.631-2.857c0.313,0.309,0.746,0.554,1.313,0.722c-0.444,0.47-0.719,0.944-0.813,1.407
			c-0.105,0.531,0.029,1.018,0.385,1.371c0.662,0.664,1.775,0.52,2.779-0.43c0.313,1.043,0.906,1.689,1.625,1.791
			c-0.307,0.227-0.639,0.426-0.989,0.579c0.552-0.063,1.129-0.063,1.646,0.076C36.303,33.869,36.947,34.785,36.719,35.639z
			 M25.578,36.195v-0.49c0.122-0.018,0.253-0.025,0.373-0.047C25.809,35.838,25.686,36.018,25.578,36.195z M37.658,28.958
			c-0.164,0.62-0.902,0.959-2.141,0.627c-0.379-0.101-0.742-0.31-1.065-0.551c0.241,0.323,0.448,0.688,0.553,1.063
			c0.331,1.238-0.009,1.979-0.628,2.145c-0.62,0.166-1.285-0.305-1.615-1.543c-0.102-0.376-0.104-0.797-0.057-1.198
			c-0.159,0.372-0.369,0.735-0.645,1.011c-0.908,0.906-1.72,0.982-2.17,0.527c-0.455-0.454-0.379-1.264,0.526-2.171
			c0.274-0.274,0.638-0.485,1.007-0.646c-0.398,0.047-0.818,0.045-1.195-0.055c-1.24-0.332-1.707-0.997-1.541-1.616
			c0.166-0.618,0.901-0.96,2.144-0.629c0.377,0.103,0.741,0.312,1.063,0.554c-0.24-0.326-0.449-0.688-0.552-1.064
			c-0.331-1.239,0.009-1.979,0.628-2.145c0.618-0.166,1.283,0.305,1.615,1.543c0.102,0.377,0.102,0.795,0.055,1.195
			c0.16-0.372,0.371-0.732,0.646-1.01c0.903-0.907,1.716-0.98,2.17-0.529c0.454,0.455,0.38,1.266-0.529,2.174
			c-0.274,0.273-0.638,0.482-1.007,0.644c0.398-0.045,0.82-0.045,1.196,0.055C37.355,27.674,37.824,28.339,37.658,28.958z"/>
		<circle fill="#FFFFFF" cx="30.542" cy="33.983" r="1.279"/>
	</g>
</g>
<g id="Cafetería" display="none">
	<path display="inline" fill="#FFFFFF" d="M36.286,19.619h-2.238v-3.357c0-3.089-6.013-5.595-13.429-5.595S7.19,13.172,7.19,16.262
		v20.143c0,3.09,6.013,5.596,13.429,5.596s13.429-2.506,13.429-5.596v-3.356h2.238c3.692,0,6.714-3.021,6.714-6.715
		C43,22.641,39.979,19.619,36.286,19.619z M13.347,15.059c2.027-0.668,4.608-1.035,7.272-1.035c2.663,0,5.245,0.369,7.271,1.035
		c1.294,0.427,2.078,0.883,2.498,1.203c-0.42,0.32-1.204,0.776-2.498,1.203c-2.026,0.668-4.608,1.035-7.271,1.035
		c-2.664,0-5.246-0.368-7.272-1.035c-1.293-0.427-2.078-0.883-2.498-1.203C11.269,15.941,12.053,15.485,13.347,15.059z
		 M38.816,28.304c-0.311,0.31-0.977,0.827-1.972,0.827h-2.797v-5.595h2.797c0.997,0,1.664,0.518,1.972,0.827
		c0.308,0.31,0.826,0.973,0.826,1.97S39.125,27.996,38.816,28.304z"/>
</g>
<g id="Cajeros" display="none">
	<g display="inline">
		<path fill="#FFFFFF" d="M35.797,22.577l-1.761-7.398c-0.188-0.657-0.564-1.162-1.128-1.515c-0.563-0.352-1.174-0.434-1.832-0.247
			c-0.939,0.235-1.573,0.775-1.902,1.621c-1.08,2.677-1.667,4.086-1.761,4.227c-0.047,0.141-0.142,0.259-0.282,0.353l-2.606,1.127
			c-0.517,0.235-0.775,0.634-0.775,1.198c0,0.376,0.129,0.693,0.388,0.951c0.258,0.258,0.574,0.388,0.951,0.388
			c0.142,0,0.305-0.024,0.493-0.071l3.1-1.268c0.329-0.188,0.611-0.47,0.846-0.845c0.094-0.095,0.305-0.541,0.634-1.339l1.832,7.892
			v12.259c0,0.658,0.199,1.198,0.6,1.62c0.398,0.424,0.903,0.635,1.515,0.635c0.61,0,1.115-0.211,1.515-0.635
			c0.398-0.422,0.599-0.938,0.599-1.55V25.466C36.22,24.621,36.079,23.658,35.797,22.577z"/>
		<path fill="#FFFFFF" d="M28.927,12.996c0.776,0,1.433-0.259,1.974-0.775c0.54-0.517,0.811-1.163,0.811-1.937
			c0-0.775-0.271-1.433-0.811-1.973C30.359,7.77,29.703,7.5,28.927,7.5c-0.774,0-1.432,0.27-1.972,0.811
			c-0.541,0.54-0.811,1.197-0.811,1.973c0,0.774,0.27,1.42,0.811,1.937C27.495,12.737,28.152,12.996,28.927,12.996z"/>
		<path fill="#FFFFFF" d="M23.749,25.114l-4.368-8.666c-0.329-0.751-0.916-1.127-1.761-1.127h-3.946
			c-0.563,0-1.033,0.199-1.409,0.598c-0.375,0.399-0.563,0.858-0.563,1.374v15.148v9.723H23.96V26.101
			c0-0.376-0.093-0.705-0.282-0.987H23.749z M20.72,37.197c-0.563,0.634-1.386,1.045-2.466,1.232v1.479h-1.127V38.43
			c-0.94-0.094-1.691-0.435-2.255-1.021s-0.939-1.397-1.127-2.432l2.113-0.21c0.094,0.422,0.259,0.787,0.494,1.092
			c0.234,0.305,0.493,0.528,0.775,0.669v-3.312c-1.034-0.281-1.797-0.728-2.29-1.338c-0.493-0.611-0.74-1.339-0.74-2.185
			s0.282-1.563,0.845-2.148c0.564-0.587,1.292-0.928,2.185-1.022v-0.774h1.127v0.774c0.846,0.095,1.526,0.376,2.043,0.846
			c0.517,0.47,0.846,1.104,0.986,1.902l-2.042,0.282c-0.141-0.658-0.47-1.08-0.987-1.269v3.029c1.315,0.376,2.196,0.834,2.643,1.374
			c0.445,0.54,0.668,1.232,0.668,2.079C21.565,35.752,21.282,36.563,20.72,37.197z"/>
		<path fill="#FFFFFF" d="M18.253,33.568v3.101c0.422-0.095,0.763-0.282,1.021-0.564c0.259-0.281,0.388-0.634,0.388-1.057
			c0-0.329-0.106-0.622-0.317-0.88C19.134,33.909,18.771,33.709,18.253,33.568z"/>
		<path fill="#FFFFFF" d="M16.352,28.742c-0.188,0.258-0.282,0.552-0.282,0.881c0,0.281,0.094,0.54,0.282,0.774
			c0.188,0.235,0.446,0.423,0.775,0.563v-2.747C16.797,28.309,16.539,28.483,16.352,28.742z"/>
	</g>
</g>
<g id="Calzado" display="none">
	<g display="inline">
		<path fill="#FFFFFF" d="M18.456,15.774c0.004-0.003,0.008-0.005,0.012-0.008c-0.029-0.039-0.057-0.079-0.086-0.119
			C18.408,15.691,18.431,15.731,18.456,15.774z"/>
		<path fill="#FFFFFF" d="M41.385,28.755c-0.527-0.177-4.397,0.176-5.629-0.528c-0.872-0.498-0.694-1.126-2.168-1.233
			c0.002,0.007,0.008,0.012,0.009,0.018c-0.02-0.007-0.038-0.014-0.057-0.021c-0.161-0.061-0.322-0.115-0.486-0.165
			c-0.034-0.011-0.069-0.02-0.103-0.031c-0.256-0.073-0.513-0.137-0.772-0.19c-1.357-0.284-2.76-0.369-4.045-0.911
			c-0.231-0.098-0.458-0.207-0.68-0.338c-1.204-0.711-2.238-1.665-3.184-2.695c-0.46-0.502-0.901-1.02-1.328-1.54
			c-1.122-1.367-2.188-3.119-3.353-4.791c-0.165-0.238-0.333-0.473-0.502-0.705c-0.655-0.898-1.346-1.752-2.099-2.487
			c-0.232-0.227-0.472-0.438-0.716-0.64c-0.177-0.146-0.357-0.286-0.542-0.418c-0.009-0.011-0.019-0.025-0.028-0.036
			c-2.903-3.518-4.046-2.462-4.046-2.462s-6.157,4.575-3.342,10.731c0.062,0.133,0.118,0.276,0.177,0.416
			c0.007,0.012,0.018,0.019,0.024,0.032c1.192,2.501,4.259,2.141,6.51,2.961c0.377,0.051,0.804,0.197,1.292,0.462
			c4.574,2.463,7.475,12.577,9.235,14.424c1.76,1.847,7.388,1.144,7.388,1.144s3.958-1.584,6.421-2.815
			C41.824,35.703,41.913,28.931,41.385,28.755z M24.073,24.514c-1.021-1.115-2.025-2.305-2.985-3.543
			c-0.818-0.989-1.592-2.019-2.217-3.102c-0.976-1.493-1.851-3.037-2.577-4.61c0.501,0.442,0.972,0.94,1.424,1.472
			c0.144,0.167,0.285,0.336,0.424,0.511c0.127,0.16,0.255,0.322,0.38,0.487c0.585,0.773,1.14,1.589,1.68,2.402
			c0.952,1.436,1.862,2.86,2.824,4.01c1.201,1.437,2.546,2.718,4.129,3.723c0.13,0.082,0.263,0.157,0.396,0.226
			c1.256,0.648,2.667,0.737,4.039,0.981c0.582,0.104,1.159,0.236,1.713,0.452C30.445,30.741,26.202,26.838,24.073,24.514z"/>
		<path fill="#FFFFFF" d="M9.114,22.563c1.867,6.653,1.311,17.187,1.311,17.187h1.935c0-8.157-0.344-14.198,1.396-15.694
			C12.132,23.663,10.38,23.513,9.114,22.563z"/>
	</g>
</g>
<g id="Cerámica" display="none">
	<g display="inline">
		<path fill="#FFFFFF" d="M20.456,40.082L20.456,40.082c0,0.776,0.595,1.404,1.431,1.404s1.515-0.628,1.515-1.404v-5.276h-2.946
			V40.082z"/>
		<path fill="#FFFFFF" d="M24.499,40.057L24.499,40.057c0.001,0.773,0.679,1.402,1.517,1.402c0.836,0,1.515-0.629,1.515-1.402
			l0.026-5.251h-3.059L24.499,40.057L24.499,40.057z"/>
		<ellipse fill="#FFFFFF" cx="24.35" cy="16.534" rx="2.82" ry="2.292"/>
		<path fill="#FFFFFF" d="M33.958,16.453c-1.115-1.099-2.196-2.205-3.502-3.162c-1.487-1.086-3.693,0.696-2.201,1.789
			c0.991,0.725,1.852,1.535,2.693,2.363c-0.885,1.072-1.952,1.965-3.286,2.67c-0.326-0.184-0.652-0.337-0.975-0.458
			c-2.386-1.003-4.819-0.027-5.161,0.121c-1.316-0.702-2.372-1.587-3.25-2.649c0.844-0.829,1.705-1.639,2.695-2.364
			c1.494-1.093-0.715-2.875-2.202-1.787c-1.307,0.956-2.387,2.061-3.501,3.161c-0.454,0.447-0.617,1-0.243,1.531
			c1.248,1.775,2.897,3.266,5.01,4.341c0.144,0.943,0.446,1.97,0.446,1.97l-0.211,1.31c-2.787,5.314-2.184,9.211-2.178,9.259
			c0.018,0.136,0.159,0.239,0.331,0.239h2.127h2.946h1.1h3.054h1.951c0.162,0,0.302-0.096,0.328-0.227
			c0.038-0.197,0.9-3.95-1.893-9.271c-0.219-0.425-0.428-1.123-0.428-1.123l0.259-1.321c0.171-0.023,0.345-0.063,0.525-0.14
			c2.503-1.089,4.407-2.726,5.808-4.722C34.574,17.455,34.411,16.901,33.958,16.453z"/>
		<path fill="#FFFFFF" d="M24.694,13.963c2.254,0,4.078-1.264,4.078-2.824c0-1.152-0.998-2.142-2.428-2.581
			c-0.607-0.811,0.729-1.454,0.729-1.454h-4.798c0,0,1.224,0.762,0.723,1.471C21.595,9.021,20.62,10,20.62,11.139
			C20.618,12.699,22.443,13.963,24.694,13.963z"/>
	</g>
</g>
<g id="Deportes" display="none">
	<path display="inline" fill="#FFFFFF" d="M16.779,38.61c0,1.998-1.621,3.617-3.617,3.617c-1.997,0-3.618-1.619-3.618-3.617
		c0-1.996,1.62-3.618,3.618-3.618S16.779,36.612,16.779,38.61z M29.079,14.735c1.997,0,3.617-1.619,3.617-3.617
		S31.076,7.5,29.079,7.5c-1.998,0-3.618,1.62-3.618,3.618S27.081,14.735,29.079,14.735z M39.264,23.931l-3.182-4.919
		c-0.133-0.204-0.316-0.372-0.525-0.487l-3.395-1.827c-1.555-0.995-6.452-2.096-8.439-1.529c-0.025,0.006-0.048,0.021-0.076,0.027
		c-0.204,0.03-0.404,0.097-0.588,0.22l-5.354,3.618c-0.059,0.042-0.118,0.087-0.172,0.136l-3.762,3.473
		c-0.587,0.542-0.623,1.458-0.083,2.044c0.287,0.31,0.676,0.466,1.067,0.466c0.349,0,0.702-0.128,0.98-0.383l3.682-3.4l3.136-2.12
		l-3.711,8.795l-1.504,2.939c-0.455,0.89-0.103,1.979,0.786,2.437c0.263,0.135,0.544,0.197,0.822,0.197
		c0.657,0,1.292-0.355,1.611-0.983l0.233-0.453l0.039,0.06l3.038-4.341l-1.252,5.158l-2.472,6.816
		c-0.34,0.933,0.145,1.976,1.084,2.314c0.202,0.077,0.41,0.11,0.616,0.11c0.741,0,1.435-0.458,1.698-1.192l4.776-13.167
		c0.037-0.106,0.028-0.213,0.046-0.325l2.741-7.961c0,0,0.033-0.075,0.087-0.188l2.66,1.43l2.986,4.608
		c0.271,0.43,0.743,0.662,1.219,0.662c0.271,0,0.543-0.077,0.785-0.232C39.507,25.5,39.699,24.604,39.264,23.931z"/>
</g>
<g id="Diversión" display="none">
	<path display="inline" fill="#FFFFFF" d="M20.277,21.398c-0.995,0-1.839,0.637-2.153,1.523c-0.084-0.238-0.133-0.494-0.133-0.761
		c0-1.263,1.023-2.286,2.286-2.286c0.866,0,1.62,0.482,2.007,1.193c0.105-1.87,0.383-3.504,0.667-4.758H7.494
		c-0.131,0-0.256,0.053-0.349,0.145C7.053,16.548,7,16.674,7,16.805c0,0.116,0.105,11.691,9.178,18.35
		c0.087,0.063,0.189,0.096,0.292,0.096s0.206-0.032,0.293-0.096c2.773-2.035,4.709-4.586,6.061-7.132
		c-0.43-1.921-0.588-3.785-0.583-5.499C21.843,21.852,21.114,21.398,20.277,21.398z M10.731,22.922
		c-0.084-0.238-0.133-0.494-0.133-0.761c0-1.263,1.024-2.286,2.285-2.286c1.262,0,2.285,1.023,2.285,2.286
		c0,0.267-0.048,0.522-0.133,0.761c-0.314-0.887-1.157-1.523-2.152-1.523C11.89,21.398,11.046,22.035,10.731,22.922z M16.227,30.628
		c-1.846,0-3.343-1.021-3.343-2.283c0-0.269,0.071-0.523,0.194-0.762c0.46,0.887,1.694,1.523,3.148,1.523s2.689-0.637,3.148-1.523
		c0.124,0.238,0.194,0.493,0.194,0.762C19.57,29.606,18.073,30.628,16.227,30.628z M41.999,20.753
		c-0.052-0.122-0.15-0.218-0.275-0.267l-16.712-6.552c-0.122-0.047-0.258-0.044-0.378,0.008c-0.119,0.053-0.215,0.151-0.262,0.272
		c-0.042,0.108-4.169,10.923,1.847,20.432c0.057,0.093,0.142,0.16,0.237,0.197c0.095,0.037,0.202,0.046,0.308,0.018
		C37.367,32.046,41.955,21.244,42,21.136C42.052,21.014,42.051,20.876,41.999,20.753z M26.322,19.096
		c0.098-0.249,0.236-0.469,0.402-0.661c-0.031,0.941,0.521,1.841,1.446,2.205c0.927,0.363,1.944,0.077,2.561-0.634
		c-0.009,0.254-0.056,0.509-0.154,0.759c-0.46,1.174-1.787,1.754-2.962,1.293C26.441,21.597,25.862,20.271,26.322,19.096z
		 M25.647,27.654c0.478-1.168,2.251-1.548,3.959-0.85c1.709,0.698,2.707,2.212,2.229,3.379c-0.101,0.248-0.262,0.458-0.468,0.633
		c-0.09-0.995-0.991-2.051-2.338-2.603c-1.347-0.549-2.73-0.242-3.49,0.405C25.516,28.351,25.546,27.903,25.647,27.654z
		 M37.459,23.462c-0.46,1.175-1.785,1.755-2.961,1.294s-1.754-1.787-1.293-2.962c0.098-0.25,0.236-0.47,0.401-0.661
		c-0.031,0.94,0.522,1.841,1.448,2.205c0.926,0.362,1.944,0.077,2.56-0.633C37.605,22.958,37.558,23.213,37.459,23.462z"/>
</g>
<g id="Elevador" display="none">
	<path display="inline" fill="#FFFFFF" d="M13.817,17.702c-0.375-0.375-0.562-0.829-0.562-1.363c0-0.535,0.187-0.989,0.562-1.364
		c0.374-0.374,0.828-0.561,1.362-0.561c0.536,0,0.989,0.187,1.363,0.561c0.375,0.375,0.562,0.829,0.562,1.364
		c0,0.534-0.187,0.988-0.562,1.363c-0.374,0.374-0.827,0.561-1.363,0.561C14.645,18.263,14.19,18.076,13.817,17.702z M11.351,26.901
		c0.121,0.095,0.261,0.141,0.422,0.141c0.16,0,0.3-0.046,0.421-0.141c0.12-0.093,0.181-0.247,0.181-0.46V21.47v-0.241
		c0-0.079,0.039-0.133,0.119-0.16c0.081-0.026,0.147-0.039,0.201-0.039c0.053,0,0.12,0.013,0.2,0.039
		c0.081,0.027,0.121,0.081,0.121,0.16v11.987c0,0.239,0.087,0.441,0.26,0.601c0.174,0.161,0.381,0.242,0.621,0.242
		c0.241,0,0.448-0.081,0.622-0.242c0.173-0.159,0.26-0.361,0.26-0.601v-4.691V25.88c0-0.135,0.054-0.221,0.16-0.261
		c0.107-0.041,0.188-0.062,0.24-0.062c0.053,0,0.127,0.021,0.221,0.062c0.093,0.039,0.14,0.126,0.14,0.261v2.645v4.691
		c0,0.239,0.087,0.441,0.26,0.601c0.174,0.161,0.381,0.242,0.622,0.242c0.267,0,0.48-0.081,0.641-0.242
		c0.16-0.159,0.24-0.361,0.24-0.601l0.04-11.987c0-0.079,0.041-0.133,0.122-0.16c0.08-0.026,0.146-0.039,0.2-0.039
		c0.053,0,0.119,0.013,0.2,0.039c0.08,0.027,0.121,0.081,0.121,0.16v0.241v4.972c0,0.213,0.06,0.367,0.18,0.461
		s0.254,0.14,0.401,0.14c0.147,0,0.281-0.046,0.4-0.14c0.122-0.094,0.181-0.248,0.181-0.461v-5.533c0-0.534-0.181-1.015-0.541-1.443
		c-0.361-0.427-0.849-0.641-1.463-0.641h-2.165h-0.04h-2.004c-0.615,0-1.062,0.214-1.343,0.641
		c-0.281,0.429-0.421,0.909-0.421,1.443v5.533C11.171,26.654,11.231,26.809,11.351,26.901z M32.137,11.307
		c0.24,0.228,0.361,0.515,0.361,0.862v23.893c0,0.348-0.121,0.635-0.361,0.862c-0.24,0.227-0.535,0.341-0.882,0.341H8.365
		c-0.347,0-0.642-0.114-0.882-0.341c-0.241-0.228-0.36-0.515-0.36-0.862V12.169c0-0.347,0.12-0.634,0.36-0.862
		c0.24-0.226,0.535-0.34,0.882-0.34h22.89C31.602,10.967,31.896,11.081,32.137,11.307z M30.493,12.971H9.126v22.29h21.367V12.971
		L30.493,12.971z M24.4,18.263c0.535,0,0.989-0.187,1.363-0.561c0.374-0.375,0.561-0.829,0.561-1.363
		c0-0.535-0.187-0.989-0.561-1.364c-0.374-0.374-0.828-0.561-1.363-0.561s-0.989,0.187-1.363,0.561
		c-0.374,0.375-0.561,0.829-0.561,1.364c0,0.534,0.187,0.988,0.561,1.363C23.411,18.076,23.865,18.263,24.4,18.263z M20.571,26.901
		c0.12,0.095,0.261,0.141,0.421,0.141c0.161,0,0.3-0.046,0.421-0.141c0.121-0.093,0.181-0.247,0.181-0.46V21.47v-0.241
		c0-0.079,0.04-0.133,0.12-0.16c0.08-0.026,0.147-0.039,0.2-0.039s0.121,0.013,0.201,0.039c0.08,0.027,0.12,0.081,0.12,0.16v11.987
		c0,0.239,0.087,0.441,0.261,0.601c0.173,0.161,0.381,0.242,0.622,0.242c0.24,0,0.448-0.081,0.621-0.242
		c0.174-0.159,0.26-0.361,0.26-0.601v-4.691V25.88c0-0.135,0.054-0.221,0.16-0.261c0.107-0.041,0.188-0.062,0.241-0.062
		c0.053,0,0.133,0.021,0.241,0.062c0.106,0.039,0.161,0.126,0.161,0.261v2.645v4.691c0,0.239,0.08,0.441,0.24,0.601
		c0.16,0.161,0.374,0.242,0.642,0.242c0.241,0,0.447-0.081,0.62-0.242c0.175-0.159,0.262-0.361,0.262-0.601V21.229
		c0-0.079,0.04-0.133,0.119-0.16c0.081-0.026,0.148-0.039,0.201-0.039c0.054,0,0.12,0.013,0.202,0.039
		c0.079,0.027,0.119,0.081,0.119,0.16v0.241v4.972c0,0.213,0.061,0.367,0.181,0.461c0.119,0.094,0.261,0.14,0.421,0.14
		c0.159,0,0.301-0.046,0.421-0.14s0.18-0.248,0.18-0.461v-5.533c0-0.534-0.187-1.015-0.561-1.443
		c-0.374-0.427-0.869-0.641-1.482-0.641h-2.126H24.2h-0.041h-1.964c-0.615,0-1.069,0.214-1.363,0.641
		c-0.294,0.429-0.44,0.909-0.44,1.443v5.533C20.392,26.654,20.451,26.809,20.571,26.901z M41.435,32.582c-0.693,0-1.798,0-1.798,0
		s0-0.3,0-0.759c0-1.416,0-4.176,0-5.232c0,0,0.01-0.248-0.312-0.248c-0.319,0-2.286,0-2.734,0c-0.449,0-0.37,0.296-0.37,0.296
		c0,1.086,0,3.753,0,5.223c0,0.513,0,0.847,0,0.847s-1.376,0-1.946,0c-0.566,0-0.044,0.493-0.044,0.493l3.45,4.171
		c0,0,0.283,0.33,0.579,0.034c0.409-0.41,3.344-4.307,3.344-4.307S42.125,32.582,41.435,32.582z M34.369,16.289
		c0.693,0,1.797,0,1.797,0s0,0.3,0,0.759c0,1.417,0,4.177,0,5.234c0,0-0.009,0.247,0.312,0.247s2.287,0,2.734,0
		c0.45,0,0.371-0.295,0.371-0.295c0-1.088,0-3.755,0-5.224c0-0.513,0-0.847,0-0.847s1.376,0,1.946,0
		c0.566,0,0.044-0.493,0.044-0.493l-3.45-4.171c0,0-0.283-0.331-0.58-0.034c-0.408,0.41-3.343,4.306-3.343,4.306
		S33.678,16.289,34.369,16.289z"/>
</g>
<g id="Hogar" display="none">
	<path display="inline" fill="#FFFFFF" d="M42,27.88l-6.611-6.611v-9.917h-4.407v5.509L24.37,10.25L6.741,27.88v1.102h4.407V40
		h11.019v-6.611h4.408V40h11.019V28.981H42V27.88z"/>
</g>
<g id="Información" display="none">
	<g display="inline">
		<path fill="#FFFFFF" d="M24.125,7.999c-9.406,0-17.059,7.652-17.059,17.058c0,9.406,7.653,17.059,17.059,17.059
			c9.406,0,17.059-7.652,17.059-17.059C41.184,15.651,33.531,7.999,24.125,7.999z M24.125,40.583
			c-8.561,0-15.527-6.966-15.527-15.526c0-8.561,6.966-15.527,15.527-15.527s15.528,6.965,15.528,15.527
			C39.653,33.617,32.686,40.583,24.125,40.583z"/>
		<path fill="#FFFFFF" d="M24.014,19.491c-0.632,0-1.147,0.514-1.147,1.148v12.964c0,0.636,0.515,1.15,1.147,1.15
			c0.636,0,1.15-0.515,1.15-1.15V20.639C25.165,20.005,24.649,19.491,24.014,19.491z"/>
		<circle fill="#FFFFFF" cx="24.087" cy="16.308" r="1.396"/>
	</g>
</g>
<g id="Joyería" display="none">
	<g id="Layer_8" display="inline">
		<path fill="#FFFFFF" d="M28.749,11.461l-1.741-4.355h3.426l2.644,4.356L28.749,11.461L28.749,11.461z M27.578,11.461l-1.743-4.355
			h-2.347l-1.743,4.356L27.578,11.461L27.578,11.461z M24.662,21.834l2.974-9.284h-5.949L24.662,21.834z M22.315,7.106h-3.427
			l-2.643,4.356h4.327L22.315,7.106z M31.234,14.619l1.67-2.068h-4.126l-2.71,8.461l3.816-4.723
			c4.445,1.995,7.543,6.455,7.543,11.642c0,7.052-5.717,12.769-12.766,12.769c-7.052,0-12.767-5.717-12.767-12.769
			c0-5.187,3.095-9.648,7.539-11.646l3.82,4.728l-2.709-8.462h-4.126l1.668,2.065c-4.625,2.386-7.791,7.205-7.791,12.77
			c0,7.933,6.432,14.364,14.366,14.364c7.933,0,14.365-6.432,14.365-14.364C39.026,21.82,35.859,17.003,31.234,14.619z"/>
	</g>
</g>
<g id="Juegos" display="none">
	<path display="inline" fill="#FFFFFF" d="M39.148,13.524C35.984,9.837,31.29,7.5,26.051,7.5c-9.527,0-17.25,7.723-17.25,17.25
		S16.523,42,26.051,42c5.239,0,9.933-2.336,13.098-6.024L28.207,24.75L39.148,13.524z M30.363,11.563
		c1.329,0,2.405,1.077,2.405,2.405s-1.076,2.405-2.405,2.405c-1.328,0-2.404-1.077-2.404-2.405S29.035,11.563,30.363,11.563z"/>
</g>
<g id="Juguetes" display="none">
	<path display="inline" fill="#FFFFFF" d="M41.605,34.391l-1.688-3.772c-0.257-0.578-1.003-0.834-1.562-0.54
		c-0.764,0.402-1.54,0.769-2.354,1.108l-2.071-10.014c0.633,0.369,1.255,1.056,1.447,2.333c0.087,0.576,0.588,1.009,1.204,1.009l0,0
		l2.169-0.073c0.619-0.02,1.123-0.539,1.123-1.159V11.049c0-0.629-0.511-1.142-1.182-1.142c0,0-0.001,0-0.002,0
		c-1.707,0.066-10.317,0.725-13.838,7.22H14.048c-0.545,0-1.045,0.385-1.19,0.915c-0.235,0.863-1.578,3.118-2.815,3.453
		c-0.355,0.094-0.627,0.335-0.748,0.661c-0.117,0.32-0.07,0.669,0.13,0.96c0.469,0.68,1.867,1.758,3.624,1.758
		c0.218,0,0.435-0.016,0.65-0.049l-0.979,6.312c-1.187-0.472-2.002-0.883-2.333-1.056c-0.555-0.291-1.28-0.055-1.554,0.506
		l-1.85,3.783c-0.136,0.277-0.155,0.592-0.053,0.884c0.102,0.292,0.312,0.524,0.592,0.657c5.539,2.618,11.271,3.943,17.037,3.943
		c9.006,0,15.362-3.29,16.544-3.95C41.632,35.607,41.852,34.944,41.605,34.391z M24.56,38.128c-5.326,0-10.627-1.188-15.768-3.531
		l1.331-2.72c0.611,0.299,1.531,0.713,2.717,1.15c0.127,0.049,0.26,0.072,0.393,0.072c0.54,0,0.992-0.393,1.075-0.934l1.269-8.18
		c0.049-0.314-0.031-0.614-0.225-0.84c-0.281-0.327-0.768-0.428-1.192-0.241c-0.364,0.162-0.736,0.243-1.109,0.243
		c-0.607,0-1.145-0.215-1.54-0.456c1.479-0.957,2.516-2.885,2.89-3.841h10.692c0.476,0,0.963-0.299,1.183-0.725
		c2.728-5.294,9.492-6.278,11.873-6.461v11.069l-1.154,0.039c-0.659-2.868-3.021-3.533-3.761-3.672l-0.206-0.019
		c-0.319,0-0.614,0.139-0.813,0.381c-0.202,0.249-0.278,0.578-0.211,0.902l2.457,11.896c0.108,0.521,0.551,0.884,1.077,0.884
		c0.139,0,0.276-0.025,0.409-0.077c0.924-0.361,1.797-0.748,2.649-1.176l1.226,2.74C37.996,35.576,32.334,38.128,24.56,38.128z"/>
</g>
<g id="Laptop" display="none">
	<path display="inline" fill="#FFFFFF" d="M37.583,31.375V13.708c0-1.215-0.994-2.208-2.208-2.208H13.292
		c-1.214,0-2.208,0.994-2.208,2.208v17.667H6.667V38H42v-6.625H37.583z M28.75,35.792h-8.833v-2.209h8.833V35.792z M35.375,31.375
		H13.292V13.712c0.001-0.001,0.002-0.003,0.004-0.004h22.076c0.001,0.001,0.003,0.002,0.004,0.004L35.375,31.375L35.375,31.375z"/>
</g>
<g id="Librería" display="none">
	<path display="inline" fill="#FFFFFF" d="M26.557,16.302l8.237-2.764l6.91,20.594l-8.237,2.764L26.557,16.302z M7,36.894h8.688V13
		H7V36.894z M9.172,17.344h4.345v2.172H9.172V17.344z M17.86,36.894h8.688V13H17.86V36.894z M20.033,17.344h4.344v2.172h-4.344
		V17.344z"/>
</g>
<g id="Marroquinería" display="none">
	<g display="inline">
		<path fill="#FFFFFF" d="M30.239,9.737h-12.53c-1.685,0-3.056,1.371-3.056,3.056v2.903h-4.584c-2.106,0-3.819,1.714-3.819,3.82
			v17.419c0,2.106,1.713,3.82,3.819,3.82h27.81c2.106,0,3.82-1.714,3.82-3.82V19.516c0-2.107-1.714-3.82-3.82-3.82h-4.583v-2.903
			C33.296,11.107,31.925,9.737,30.239,9.737z M17.098,12.793c0-0.337,0.275-0.611,0.611-0.611h12.53
			c0.337,0,0.611,0.274,0.611,0.611v2.903H17.098V12.793L17.098,12.793z M11.903,38.005h-1.834C9.48,38.005,9,37.525,9,36.935
			V19.516c0-0.59,0.48-1.07,1.069-1.07h1.834V38.005z M36.046,18.446h1.833c0.591,0,1.07,0.48,1.07,1.07v17.418
			c0,0.591-0.479,1.07-1.07,1.07h-1.833V18.446z M33.602,18.446v19.559H14.349V18.446H33.602z"/>
	</g>
</g>
<g id="Medicina" display="none">
	<path display="inline" fill="#FFFFFF" d="M37.726,19.502l-2.489-3.763c-0.178-0.269-0.321-0.712-0.321-0.991
		c0-0.278,0.103-0.504,0.23-0.504c0.129,0,0.231-0.261,0.231-0.583V8.804c0-0.322-0.261-0.583-0.583-0.583H14.493
		c-0.322,0-0.583,0.26-0.583,0.583v4.856c0,0.322,0.092,0.583,0.207,0.583c0.114,0,0.206,0.226,0.206,0.503
		c0,0.279-0.144,0.723-0.322,0.991l-2.489,3.763c-0.178,0.269-0.322,0.747-0.322,1.069v21.403c0,0.322,0.261,0.583,0.583,0.583
		h12.821h0.049h12.821c0.322,0,0.583-0.261,0.583-0.583V20.571C38.048,20.248,37.903,19.771,37.726,19.502z M32.62,9.532
		c0-0.161,0.131-0.291,0.291-0.291c0.161,0,0.291,0.13,0.291,0.291v3.788c0,0.161-0.13,0.292-0.291,0.292
		c-0.16,0-0.291-0.131-0.291-0.292V9.532z M29.269,9.532c0-0.161,0.131-0.291,0.291-0.291c0.162,0,0.292,0.13,0.292,0.291v3.788
		c0,0.161-0.13,0.292-0.292,0.292c-0.16,0-0.291-0.131-0.291-0.292V9.532z M25.918,9.532c0-0.161,0.131-0.291,0.291-0.291
		c0.162,0,0.291,0.13,0.291,0.291v3.788c0,0.161-0.129,0.292-0.291,0.292c-0.16,0-0.291-0.131-0.291-0.292V9.532z M22.567,9.532
		c0-0.161,0.13-0.291,0.291-0.291s0.291,0.13,0.291,0.291v3.788c0,0.161-0.13,0.292-0.291,0.292s-0.291-0.131-0.291-0.292V9.532z
		 M19.216,9.532c0-0.161,0.13-0.291,0.291-0.291c0.161,0,0.292,0.13,0.292,0.291v3.788c0,0.161-0.13,0.292-0.292,0.292
		c-0.161,0-0.291-0.131-0.291-0.292V9.532z M15.865,9.532c0-0.161,0.13-0.291,0.291-0.291c0.161,0,0.292,0.13,0.292,0.291v3.788
		c0,0.161-0.13,0.292-0.292,0.292c-0.161,0-0.291-0.131-0.291-0.292V9.532z M35.716,39.643c0,0.322-0.26,0.583-0.582,0.583h-10.49
		h-0.049h-10.49c-0.322,0-0.583-0.261-0.583-0.583v-6.337h22.194V39.643z M25.797,27.368h1.794c0.119,0,0.216,0.096,0.216,0.214
		v1.502c0,0.118-0.097,0.214-0.216,0.214h-1.794c-0.117,0-0.213,0.096-0.213,0.214v1.794c0,0.118-0.096,0.213-0.214,0.213h-1.502
		c-0.118,0-0.214-0.095-0.214-0.213v-1.794c0-0.118-0.096-0.214-0.214-0.214h-1.793c-0.119,0-0.214-0.096-0.214-0.214v-1.502
		c0-0.118,0.096-0.214,0.214-0.214h1.793c0.118,0,0.214-0.096,0.214-0.214V25.36c0-0.118,0.096-0.214,0.214-0.214h1.502
		c0.118,0,0.214,0.096,0.214,0.214v1.794C25.584,27.272,25.68,27.368,25.797,27.368z M35.716,23.737H13.521v-2.466
		c0-0.322,0.144-0.8,0.322-1.069l2.489-3.763c0.178-0.269,0.322-0.747,0.322-1.069v-0.544c0-0.322,0.26-0.583,0.583-0.583h14.764
		c0.322,0,0.583,0.26,0.583,0.583v0.544c0,0.322,0.145,0.8,0.321,1.069l2.489,3.763c0.178,0.269,0.321,0.747,0.321,1.069V23.737
		L35.716,23.737z"/>
</g>
<g id="Movil" display="none">
	<path display="inline" fill="#FFFFFF" d="M32.328,7.5H17.234C15.456,7.5,14,8.956,14,10.734v28.031C14,40.545,15.456,42,17.234,42
		h15.094c1.779,0,3.234-1.455,3.234-3.234V10.734C35.563,8.956,34.107,7.5,32.328,7.5z M20.469,9.117h8.625v1.078h-8.625V9.117z
		 M24.781,39.844c-1.192,0-2.156-0.965-2.156-2.156s0.964-2.156,2.156-2.156c1.191,0,2.156,0.965,2.156,2.156
		S25.973,39.844,24.781,39.844z M33.406,33.375h-17.25V11.813h17.25V33.375z"/>
</g>
<g id="Muebles" display="none">
	<g display="inline">
		<path fill="#FFFFFF" d="M34.413,38c-0.725,0-1.317-0.592-1.317-1.317v-1.317h1.317c2.101,0,2.636-0.714,2.636-0.714v2.031
			c0,0.726-0.593,1.317-1.318,1.317H34.413z"/>
		<path fill="#FFFFFF" d="M12.019,38c-0.726,0-1.317-0.592-1.317-1.317v-2.031c0,0,0.535,0.714,2.635,0.714h1.317v1.317
			c0,0.726-0.591,1.317-1.317,1.317H12.019z"/>
		<rect x="6.75" y="3.75" fill="none" width="34.25" height="34.25"/>
		<g>
			<path fill="#FFFFFF" d="M40.753,24.168c0-1.683-1.363-3.046-3.046-3.046c-1.308,0-2.413,0.825-2.846,1.983l-1.444,3.237
				c-0.108-0.067-4.479-1.441-9.459-1.441c-4.983,0-9.525,1.379-9.635,1.448l-1.369-3.035c-0.37-1.263-1.527-2.192-2.91-2.192
				c-1.682,0-3.047,1.363-3.047,3.048c0,1.4,0.952,2.566,2.239,2.924l0.563,4.848c0.596,2.056,3.539,2.107,3.539,2.107h21.076
				c0,0,2.943-0.052,3.538-2.111l0.563-4.848C39.801,26.735,40.753,25.568,40.753,24.168z"/>
		</g>
		<path fill="#FFFFFF" d="M10.043,19.539c1.992,0,3.779,1.315,4.392,3.213l0.667,1.482c1.29-0.465,5.927-0.913,8.856-0.913
			c2.85,0,7.42,0.416,8.685,0.878l0.758-1.698c0.686-1.773,2.41-2.962,4.308-2.962c0.141,0,0.272,0.03,0.411,0.042
			c0-0.008,0.002-0.017,0.002-0.025c0-3.5-2.837-6.339-6.34-6.339c-0.44,0-15.367,0-15.808,0c-3.502,0-6.34,2.837-6.34,6.339
			c0,0.008,0.001,0.017,0.001,0.025C9.771,19.57,9.904,19.539,10.043,19.539z"/>
	</g>
</g>
<g id="Óptica" display="none">
	<path display="inline" fill="#FFFFFF" d="M41.119,24.5c0.375-0.237,0.512-0.726,0.298-1.124l-4.167-7.428
		c-0.073-0.137-0.183-0.25-0.315-0.33c-0.115-0.071-1.171-0.667-2.497-0.234c-1.18,0.385-2.139,1.068-2.853,2.756
		c-0.184,0.436,0.02,0.938,0.456,1.122c0.436,0.185,1.066,0.015,1.122-0.455c0.15-1.261,0.516-1.813,1.78-2.153
		c0.396-0.106,0.732-0.07,0.935-0.004l1.349,4.721l0.338,0.354c-0.258-0.043-0.522-0.067-0.793-0.067h-7.207
		c-1.66,0-3.123,0.856-3.972,2.151c-0.314-0.389-0.794-0.636-1.333-0.636h-0.816c-0.447,0-0.853,0.172-1.159,0.451
		c-0.863-1.19-2.264-1.967-3.844-1.967h-7.206c-0.083,0-0.166,0.001-0.249,0.007l1.339-4.681c0.2-0.065,0.536-0.102,0.933,0.005
		c1.265,0.34,1.632,0.891,1.781,2.152c0.056,0.471,0.687,0.641,1.122,0.455c0.436-0.183,0.641-0.686,0.456-1.122
		c-0.713-1.688-1.673-2.372-2.851-2.756c-1.329-0.433-2.383,0.165-2.499,0.234c-0.133,0.08-0.242,0.194-0.315,0.331L6.783,23.71
		c-0.158,0.296-0.122,0.641,0.057,0.896c-0.228,0.557-0.354,1.163-0.354,1.801c0,0.016,0,0.032,0.001,0.051l0.201,1.793
		c0.014,2.606,2.138,4.52,4.748,4.52h6.903c0.001,0,0.002,0,0.004,0c0.078,0,0.154-0.013,0.224-0.037
		c0.949-0.196,3.773-0.876,4.31-4.402c0.001-0.011,0.002-0.021,0.003-0.031l0.13-0.2c0.139,0.036,0.283,0.057,0.433,0.057h0.816
		c0.259,0,0.503-0.059,0.725-0.161l0.14,0.304c0.001,0.011,0.002,0.021,0.004,0.031c0.538,3.54,3.384,4.213,4.32,4.405
		c0.068,0.022,0.142,0.034,0.218,0.034h6.903c2.609,0,4.733-1.914,4.747-4.52l0.201-1.792c0-0.019,0.001-0.035,0.001-0.053
		C41.519,25.729,41.376,25.083,41.119,24.5z M21.477,28.133c-0.401,2.594-2.387,3.058-3.23,3.222h-6.811
		c-1.838,0-3.333-1.293-3.333-3.131c0-0.016,0-0.033-0.002-0.051l-0.201-1.792c0.014-1.827,1.504-3.31,3.334-3.31h7.206
		c1.651,0,3.023,1.21,3.284,2.788v0.577c0,0.078,0.007,0.154,0.017,0.229L21.477,28.133z M39.904,28.174
		c-0.001,0.018-0.002,0.034-0.002,0.05c0,1.839-1.495,3.131-3.334,3.131H29.76c-0.846-0.164-2.831-0.627-3.231-3.222l-0.297-1.763
		c0.02-1.821,1.507-3.297,3.333-3.297h7.207c1.83,0,3.32,1.481,3.332,3.309L39.904,28.174z"/>
</g>
<g id="Papelería" display="none">
	<g display="inline">
		<path fill="#FFFFFF" d="M29.657,37.85H9.665V11.195h19.992v4.542l2.664-2.97v-1.523c0-1.499-1.215-2.714-2.714-2.714H9.713
			C8.215,8.53,7,9.744,7,11.244v26.558c0,1.499,1.215,2.714,2.713,2.714h19.896c1.498,0,2.714-1.215,2.714-2.714v-8.745
			l-2.666,2.972V37.85L29.657,37.85z"/>
		<path fill="#FFFFFF" d="M27.396,16.082c0-0.736-0.596-1.332-1.332-1.332h-12.82c-0.735-0.001-1.332,0.596-1.332,1.332
			c0,0.735,0.597,1.332,1.332,1.332h12.819C26.8,17.414,27.396,16.817,27.396,16.082z"/>
		<path fill="#FFFFFF" d="M25.56,20.334H13.244c-0.736,0-1.332,0.598-1.332,1.332c0,0.736,0.597,1.333,1.332,1.333h9.924
			L25.56,20.334z"/>
		<path fill="#FFFFFF" d="M20.578,25.854h-7.334c-0.736,0-1.332,0.598-1.332,1.333s0.597,1.332,1.332,1.332h5.825L20.578,25.854z"/>
		<path fill="#FFFFFF" d="M11.912,32.773c0,0.735,0.597,1.332,1.332,1.332h4.266c0.017-0.191,0.044-0.295,0.086-0.44l0.642-2.226
			h-4.994C12.509,31.441,11.912,32.037,11.912,32.773z"/>
		<path fill="#FFFFFF" d="M31.917,16.21L22.61,26.584l-0.719,0.803l5.124,4.597l0.719-0.803l9.307-10.374l0.84-0.937l-5.123-4.596
			L31.917,16.21z M31.474,20.896l-6.104,6.803c-0.075,0.086-0.184,0.137-0.299,0.142c-0.114,0.007-0.226-0.032-0.311-0.108
			l-0.303-0.271c-0.177-0.16-0.191-0.431-0.032-0.608l6.103-6.804c0.077-0.086,0.184-0.138,0.3-0.144
			c0.113-0.005,0.226,0.033,0.311,0.11l0.3,0.272C31.619,20.445,31.633,20.718,31.474,20.896z M33.247,17.663l0.303,0.271
			c0.176,0.159,0.191,0.432,0.031,0.609l-0.076,0.086l-0.438,0.486l-0.019,0.02c-0.074,0.086-0.184,0.137-0.299,0.143
			c-0.114,0.006-0.226-0.032-0.311-0.11l-0.304-0.271c-0.086-0.076-0.135-0.184-0.142-0.298c-0.007-0.114,0.033-0.227,0.111-0.312
			l0.53-0.591C32.797,17.519,33.07,17.503,33.247,17.663z"/>
		<polygon fill="#FFFFFF" points="33.637,14.293 33.252,14.723 38.374,19.318 38.762,18.886 39.632,17.916 34.51,13.321 		"/>
		<path fill="#FFFFFF" d="M42.186,14.416c-0.021-0.395-0.199-0.765-0.493-1.029l-2.902-2.605c-0.295-0.264-0.683-0.399-1.076-0.378
			c-0.394,0.022-0.767,0.199-1.028,0.493l-1.713,1.909l5.122,4.593l1.711-1.909C42.07,15.198,42.207,14.811,42.186,14.416z
			 M39.99,15.485l-3.104-2.784l0.896-0.998l3.102,2.783L39.99,15.485z"/>
		<path fill="#FFFFFF" d="M19.733,34.945c0.211,0.189,0.513,0.242,0.777,0.135l5.889-2.412l-5.122-4.595l-1.762,6.116
			C19.437,34.463,19.522,34.756,19.733,34.945z M21.747,29.707l2.975,2.67l-2.313,0.948l-1.354-1.216L21.747,29.707z"/>
	</g>
</g>
<g id="Postres" display="none">
	<path display="inline" fill="#FFFFFF" d="M35.306,13.289c-0.707-1.813-2.268-2.233-3.545-2.58
		c-0.197-0.054-0.401-0.108-0.607-0.166c-1.367-2.809-4.383-3.188-6.926-3.188c-2.55,0-5.578,0.384-6.938,3.211
		c-0.207,0.058-0.411,0.11-0.613,0.163c-1.274,0.334-2.826,0.742-3.549,2.529c-3.079,1.022-5.238,3.948-5.238,7.25
		c0,2.648,1.356,4.982,3.41,6.351l2.61,13.634c0.165,1.229,1.215,1.597,2.458,1.597h15.7c1.242,0,2.288-0.367,2.458-1.597
		l2.619-13.687c2.01-1.376,3.332-3.685,3.332-6.298C40.478,17.243,38.348,14.33,35.306,13.289z M32.847,25.386
		c-1.18,0-2.317-0.431-3.212-1.213l-0.981-0.868l-0.915,0.946c-0.933,0.966-2.179,1.499-3.511,1.499
		c-1.349,0-2.605-0.543-3.539-1.531l-0.923-0.975l-1,0.891c-0.898,0.81-2.051,1.25-3.246,1.25c-2.69,0-4.875-2.185-4.875-4.877
		c0-2.29,1.623-4.296,3.86-4.766l0.882-0.187l0.184-0.877c0.171-0.808,0.365-0.907,1.808-1.284c0.414-0.107,0.88-0.23,1.383-0.402
		l0.638-0.215l0.218-0.64c0.417-1.213,1.359-2.021,4.608-2.021c3.237,0,4.181,0.799,4.6,1.998l0.217,0.631l0.63,0.219
		c0.496,0.175,0.956,0.297,1.364,0.408c1.451,0.394,1.645,0.494,1.813,1.311l0.175,0.877l0.875,0.195
		c2.212,0.485,3.82,2.49,3.82,4.756C37.724,23.197,35.534,25.386,32.847,25.386z M19.202,16.21c0.273,0.445,0.385,0.86,0.445,1.271
		c0.05,0.406,0.042,0.809-0.024,1.191c-0.064,0.39-0.187,0.773-0.373,1.138c-0.19,0.366-0.432,0.725-0.835,1.055
		c-0.27-0.442-0.38-0.86-0.439-1.271c-0.058-0.409-0.044-0.804,0.021-1.195c0.063-0.387,0.183-0.764,0.37-1.132
		C18.556,16.896,18.798,16.541,19.202,16.21z M24.966,18.444c0.044,0.392,0.031,0.789-0.041,1.194
		c-0.078,0.406-0.208,0.818-0.502,1.253c-0.385-0.355-0.606-0.723-0.779-1.104c-0.168-0.379-0.27-0.762-0.317-1.154
		c-0.051-0.389-0.038-0.786,0.035-1.192c0.082-0.407,0.212-0.819,0.509-1.249c0.389,0.349,0.609,0.721,0.779,1.096
		C24.822,17.664,24.922,18.051,24.966,18.444z M30.146,18.194c0.122,0.378,0.192,0.768,0.196,1.182
		c0.003,0.412-0.047,0.842-0.249,1.322c-0.445-0.27-0.74-0.587-0.982-0.925c-0.234-0.333-0.415-0.69-0.533-1.067
		c-0.126-0.374-0.193-0.762-0.201-1.174c-0.001-0.414,0.051-0.84,0.253-1.326c0.452,0.27,0.744,0.585,0.985,0.923
		C29.853,17.461,30.032,17.82,30.146,18.194z"/>
</g>
<g id="Relojería" display="none">
	<path display="inline" fill="#FFFFFF" d="M20.253,16.313c0-0.786,0.639-1.423,1.422-1.423c0.783,0,1.422,0.637,1.422,1.423
		c0,0.786-0.639,1.421-1.422,1.421C20.892,17.734,20.253,17.099,20.253,16.313z M21.676,32.153c-0.726,0-1.318,0.589-1.318,1.317
		c0,0.728,0.592,1.316,1.318,1.316c0.726,0,1.317-0.589,1.317-1.316C22.993,32.742,22.401,32.153,21.676,32.153z M13.175,23.573
		c-0.726,0-1.317,0.591-1.317,1.318c0,0.728,0.592,1.317,1.317,1.317c0.731,0,1.318-0.59,1.318-1.317
		C14.493,24.165,13.906,23.573,13.175,23.573z M28.771,24.891c0,0.747,0.607,1.353,1.353,1.353c0.75,0,1.352-0.605,1.352-1.353
		c0-0.745-0.602-1.353-1.352-1.353C29.378,23.538,28.771,24.146,28.771,24.891z M22.289,23.255v-0.337h-0.835v0.337
		c-0.413,0.117-0.754,0.402-0.945,0.776h-3.51v1.392h3.51c0.191,0.375,0.533,0.66,0.945,0.776v5.071h0.835V26.2
		c0.412-0.116,0.753-0.401,0.945-0.776h1.003v-1.392h-1.003C23.042,23.657,22.701,23.372,22.289,23.255z M39.551,22.408v5.012H36.21
		V26h-1.321c-0.229,2.709-1.222,5.2-2.829,7.205c-0.359,2.425-1.512,6.465-1.512,6.465l-2.992,2.965H15.583l-2.78-2.965
		c0,0-1.148-4.038-1.508-6.464c-1.828-2.278-2.928-5.167-2.928-8.315c0-3.149,1.101-6.037,2.928-8.316
		c0.36-2.426,1.508-6.417,1.508-6.417l2.812-3.012h11.973l2.96,3.012c0,0,1.152,3.994,1.512,6.419
		c1.607,2.003,2.6,4.495,2.829,7.205h1.321v-1.374H39.551L39.551,22.408z M32.488,24.891c0-5.962-4.85-10.812-10.813-10.812
		c-5.959,0-10.812,4.851-10.812,10.812c0,5.961,4.853,10.812,10.812,10.812C27.639,35.702,32.488,30.852,32.488,24.891z
		 M18.065,20.784l-2.69-2.69l-0.788,0.787l2.69,2.69L18.065,20.784z M28.805,18.851l-0.817-0.756l-2.474,2.675l0.817,0.756
		L28.805,18.851z M14.587,31.271l0.788,0.788l2.689-2.69l-0.787-0.788L14.587,31.271z M25.514,29.386l2.473,2.673l0.817-0.757
		l-2.473-2.674L25.514,29.386z"/>
</g>
<g id="Restaurantes" display="none">
	<g display="inline">
		<path fill="#FFFFFF" d="M23.626,9.971c-8.094,0-14.654,6.56-14.654,14.654c0,5.832,3.416,10.852,8.347,13.211l0.458-8.863
			c0,0-0.863-0.283-1.051-0.375c-1.83-0.806-3.159-3.18-3.159-6.26c0-3.361,2.606-6.256,5.127-6.28c0.003,0,0.003,0,0.005,0
			c0.001,0,0.003,0,0.004,0c2.521,0.024,5.127,2.919,5.127,6.28c0,3.08-1.331,5.453-3.157,6.26c-0.015,0.006-1.06,0.386-1.06,0.386
			l0.512,9.854c1.124,0.276,2.293,0.438,3.502,0.438c1.631,0,3.193-0.278,4.659-0.769l0.454-8.783
			c-1.196-0.262-2.217-1.023-2.856-1.979c-0.792-1.186,0.61-11.688,0.61-11.688h0.911v9.855h0.906v-9.854h0.99v9.856h0.901v-9.856
			h1.027v9.856h0.905v-9.856h0.699c0,0,1.402,10.503,0.61,11.689c-0.633,0.946-1.645,1.705-2.826,1.975
			c-0.021,0.008-0.04,0.015-0.04,0.015l0.395,7.554c4.365-2.537,7.308-7.252,7.308-12.665C38.279,16.531,31.719,9.971,23.626,9.971z
			"/>
		<path fill="#FFFFFF" d="M15.712,20.848c0.052-0.214,0.123-0.417,0.126-0.42c0.023-0.08-0.02-0.162-0.106-0.214
			c-0.083-0.044-0.184-0.021-0.23,0.05c0,0-0.1,0.16-0.245,0.396c-0.119,0.203-0.293,0.528-0.413,0.932
			c-0.104,0.354-0.227,0.825-0.283,1.352c-0.024,0.277-0.029,0.527-0.021,0.784c0.021,0.294,0.065,0.544,0.15,0.831
			c0.288,0.819,0.509,1.611,1.31,2.392c0.253,0.26,0.513,0.438,0.701,0.567l0.066,0.047c0.041,0.026,0.079,0.051,0.117,0.073
			c0.158,0.083,0.263,0.112,0.282,0.115c0.079,0.022,0.159-0.017,0.192-0.079c0.031-0.067,0.009-0.151-0.057-0.205
			c0,0-0.091-0.079-0.208-0.228c-0.08-0.09-0.167-0.221-0.268-0.369c-0.072-0.104-0.157-0.221-0.234-0.335
			c-0.39-0.596-0.615-1.425-0.925-2.277c-0.061-0.185-0.111-0.423-0.129-0.627c-0.025-0.234-0.037-0.46-0.037-0.67
			c-0.009-0.486,0.013-0.904,0.055-1.243C15.603,21.339,15.641,21.052,15.712,20.848z"/>
		<path fill="#FFFFFF" d="M23.626,7.25c-9.58,0-17.376,7.794-17.376,17.375C6.25,34.203,14.046,42,23.626,42
			C33.205,42,41,34.203,41,24.625C41,15.044,33.205,7.25,23.626,7.25z M23.626,40.704c-8.867,0-16.081-7.214-16.081-16.079
			c0-8.867,7.214-16.081,16.081-16.081c8.866,0,16.08,7.214,16.08,16.081C39.706,33.49,32.492,40.704,23.626,40.704z"/>
	</g>
</g>
<g id="Ropa">
	<g>
		<path fill="#FFFFFF" d="M34.001,11.27c-0.392-0.391-1.051-0.665-1.603-0.665h-3.372c-0.077,0-0.763,0.023-0.878,0.833
			c-0.011,0.082-0.029,0.204-0.069,0.325c-0.273,0.801-1.726,1.63-3.681,1.63c-1.955,0-3.406-0.829-3.68-1.63
			c-0.237-0.692-0.837-1.157-1.497-1.157h-3.126c-0.363,0-0.363,0-4.028,3.663L7.382,18.95c-0.274,0.273-0.424,0.638-0.425,1.024
			c0,0.387,0.15,0.751,0.424,1.025l4.469,4.47c0.547,0.547,1.5,0.547,2.048,0l1.327-1.327v13.441c0,0.797,0.65,1.448,1.448,1.448
			H32.23c0.798,0,1.448-0.651,1.448-1.448V23.981l1.488,1.487c0.545,0.548,1.5,0.548,2.047,0l4.469-4.47
			c0.273-0.273,0.424-0.638,0.424-1.024c0-0.387-0.151-0.751-0.424-1.024L34.001,11.27z M12.875,24.036l-4.06-4.061
			c0.331-0.331,0.694-0.695,1.076-1.076l4.115,4.003L12.875,24.036z M32.982,21.293c-0.519,0-1.042,0.4-1.042,1.168v14.832H16.963
			V22.623c0-0.768-0.524-1.168-1.042-1.168c-0.212,0-0.533,0.066-0.851,0.384l-0.653,0.654l-4.115-4.003
			c2.375-2.374,5.294-5.292,6.151-6.146h2.627c0.576,1.643,2.757,2.789,5.318,2.789s4.744-1.146,5.318-2.789h2.683
			c0.093,0.001,0.307,0.091,0.374,0.156l6.066,6.067l-4.113,4.003l-0.892-0.892C33.516,21.36,33.195,21.293,32.982,21.293z
			 M36.189,24.036l-1.056-1.057l4.116-4.004l1,1.001L36.189,24.036z"/>
	</g>
</g>
<g id="Servicios" display="none">
	<g display="inline">
		<path fill="#FFFFFF" d="M40.129,32.66l-0.664,0.951l-1.895-0.835l-4.553-2.753l-1.64,1.165l3.193,2.239l-4.533,0.992l-3.447-1.853
			l-1.958,0.907l4.785,3.195l5.923,0.049l1.742,0.311l-0.717,1.027l2.118,1.476l3.763-5.399L40.129,32.66z M38.29,38.442
			l-0.833-0.579l2.866-4.111l0.834,0.578L38.29,38.442z"/>
		<path fill="#FFFFFF" d="M18.96,34.421l-4.533-0.993l3.193-2.238l-1.64-1.166l-4.552,2.754l-1.896,0.834L8.87,32.66l-2.119,1.476
			l3.763,5.397l2.118-1.476l-0.716-1.026l1.742-0.311l5.922-0.048l4.785-3.194l-1.959-0.909L18.96,34.421z M10.709,38.443
			l-2.867-4.112l0.833-0.579l2.866,4.113L10.709,38.443z"/>
		<path fill="#FFFFFF" d="M16.483,26.865c1.983,2.379,4.96,3.902,8.288,3.921c0.014,0,0.025,0.002,0.038,0.002
			c0.002,0,0.007,0,0.01,0c0.005,0,0.01,0,0.016,0c3.354,0,6.357-1.527,8.354-3.921c0.182-0.22,0.354-0.448,0.521-0.683
			c1.257-1.772,1.997-3.935,1.997-6.27c0-2.332-0.741-4.494-1.997-6.268c-0.166-0.234-0.34-0.461-0.521-0.683
			c-1.998-2.393-5-3.921-8.354-3.921c-0.006,0-0.012,0-0.016,0c-0.003,0-0.008,0-0.01,0c-0.013,0-0.024,0.002-0.038,0.002
			c-3.328,0.019-6.305,1.543-8.288,3.92c-0.183,0.22-0.356,0.447-0.522,0.681c-1.257,1.773-1.998,3.936-1.998,6.268
			c0,2.335,0.742,4.497,1.998,6.27C16.127,26.419,16.3,26.647,16.483,26.865z M27.934,29.401c1.015-0.968,1.859-2.393,2.436-4.107
			c0.784,0.289,1.49,0.64,2.095,1.036C31.279,27.735,29.719,28.815,27.934,29.401z M32.99,25.649
			c-0.688-0.459-1.485-0.862-2.369-1.19c0.313-1.154,0.516-2.414,0.572-3.742h3.588C34.634,22.545,33.991,24.232,32.99,25.649z
			 M34.813,19.825h-3.601c-0.009-1.588-0.222-3.095-0.591-4.452c0.884-0.329,1.681-0.729,2.369-1.188
			C34.117,15.784,34.793,17.726,34.813,19.825z M32.466,13.502c-0.605,0.398-1.313,0.748-2.098,1.037
			c-0.577-1.714-1.42-3.141-2.435-4.108C29.719,11.016,31.28,12.096,32.466,13.502z M25.282,9.975
			c1.81,0.279,3.369,2.155,4.255,4.838c-1.279,0.38-2.722,0.608-4.255,0.646V9.975z M25.282,16.351
			c1.616-0.039,3.142-0.287,4.502-0.697c0.335,1.268,0.527,2.677,0.536,4.171h-5.038V16.351z M25.282,20.717h5.02
			c-0.055,1.231-0.234,2.397-0.513,3.464c-1.363-0.413-2.89-0.662-4.509-0.7v-2.764H25.282z M25.282,24.371
			c1.533,0.038,2.979,0.269,4.257,0.646c-0.887,2.687-2.447,4.56-4.257,4.837V24.371z M17.206,26.33
			c0.595-0.391,1.284-0.734,2.049-1.021c0.572,1.692,1.403,3.101,2.403,4.064C19.904,28.783,18.373,27.715,17.206,26.33z
			 M24.389,29.863c-1.829-0.25-3.411-2.129-4.305-4.831c1.291-0.388,2.753-0.623,4.305-0.661V29.863z M24.389,23.479
			c-1.637,0.041-3.181,0.293-4.557,0.717c-0.281-1.072-0.46-2.243-0.515-3.479h5.072V23.479z M24.389,19.825h-5.09
			c0.007-1.499,0.203-2.915,0.539-4.186c1.373,0.421,2.916,0.674,4.551,0.713V19.825z M24.389,9.968v5.491
			c-1.552-0.038-3.013-0.272-4.304-0.659C20.981,12.099,22.56,10.22,24.389,9.968z M21.657,10.458c-1,0.963-1.83,2.373-2.402,4.064
			c-0.767-0.287-1.457-0.631-2.052-1.021C18.37,12.115,19.904,11.049,21.657,10.458z M16.679,14.183
			c0.676,0.452,1.458,0.846,2.322,1.172c-0.372,1.361-0.586,2.875-0.594,4.47h-3.549C14.876,17.726,15.551,15.783,16.679,14.183z
			 M18.424,20.717c0.057,1.335,0.26,2.603,0.577,3.762c-0.864,0.324-1.646,0.72-2.322,1.171c-1-1.419-1.643-3.104-1.79-4.933H18.424
			z"/>
	</g>
</g>
<g id="Supermall" display="none">
	<polygon display="inline" fill="#FFFFFF" points="40.339,39.968 40.339,11.836 36.402,9.213 22.303,15.902 22.303,20.623 
		14.437,23.246 14.437,26.673 8.578,28.309 8.578,39.848 7,39.848 7,41.761 8.578,41.761 8.578,41.771 10.35,41.761 10.371,29.579 
		20.229,27.183 20.171,41.732 21.579,41.743 21.579,41.761 24.9,41.761 24.9,39.848 23.887,39.848 23.887,28.312 21.484,24.706 
		16.272,26.16 16.272,24.689 26.502,21.213 26.502,41.735 33.781,41.735 33.781,39.837 32.404,39.837 32.404,20.885 28.404,18.393 
		24.208,19.836 24.272,17.213 34.502,12.36 34.502,41.868 41.846,41.868 41.846,39.968 	"/>
</g>
<g id="Supermercados" display="none">
	<path display="inline" fill="#FFFFFF" d="M40.379,11.039c-1.188-0.338-2.423,0.349-2.763,1.535l-0.176,0.613H16.601l-0.314-2.512
		c-0.14-1.118-1.09-1.957-2.217-1.957H8.483c-1.234,0-2.234,1-2.234,2.234s1,2.234,2.234,2.234h3.613l1.99,15.918
		c0.14,1.118,1.09,1.957,2.217,1.957h18.992c0.998,0,1.874-0.661,2.148-1.621l4.469-15.641
		C42.251,12.614,41.563,11.377,40.379,11.039L40.379,11.039z M24.125,22.125v-2.234h4.469v2.234H24.125z M28.594,24.359v2.234
		h-4.469v-2.234H28.594z M24.125,17.656v-2.234h4.469v2.234H24.125z M16.881,15.422h5.009v2.234h-4.73L16.881,15.422z M17.44,19.891
		h4.451v2.234h-4.171L17.44,19.891z M17.999,24.359h3.892v2.234h-3.613L17.999,24.359z M33.611,26.594h-2.783v-2.234h3.422
		L33.611,26.594L33.611,26.594z M34.888,22.125h-4.06v-2.234h4.699L34.888,22.125L34.888,22.125z M36.165,17.656h-5.337v-2.234
		h5.977L36.165,17.656L36.165,17.656z M15.188,36.648c0-1.852,1.5-3.352,3.352-3.352s3.352,1.5,3.352,3.352S20.391,40,18.539,40
		S15.188,38.5,15.188,36.648z M28.594,36.648c0-1.852,1.5-3.352,3.352-3.352s3.352,1.5,3.352,3.352S33.797,40,31.945,40
		S28.594,38.5,28.594,36.648z"/>
</g>
<g id="TransporteP" display="none">
	<path display="inline" fill="#FFFFFF" d="M40.55,12.95h-2.552v8.776h1.021v4.03h-1.938V12.44c-0.001-2.705-2.193-4.897-4.898-4.897
		H16.06c-2.706,0-4.897,2.192-4.897,4.897v13.062H9.479v-4.288h1.072V12.44H8v8.774h1.071v4.696h2.091v9.593
		c0,1.853,1.032,3.468,2.551,4.299v2.534H18v-1.938h12.142v1.938h4.286V39.85c1.575-0.813,2.653-2.454,2.653-4.348v-9.338h2.347
		v-4.438h1.122V12.95L40.55,12.95z M18.51,8.562h11.428v2.655H18.51V8.562z M19.733,35.296h-6.326v-2.854h6.326V35.296z
		 M35.039,35.296h-6.325v-2.854h6.325V35.296z M35.039,26.113c0,0-1.225,3.878-11.02,3.878c-9.796,0-10.816-3.878-10.816-3.878
		v-13.47h21.836V26.113z"/>
</g>
</svg>
