<?xml version="1.0" encoding="utf-8"?>
<!-- Generator: Adobe Illustrator 16.0.0, SVG Export Plug-In . SVG Version: 6.00 Build 0)  -->
<!DOCTYPE svg PUBLIC "-//W3C//DTD SVG 1.1//EN" "http://www.w3.org/Graphics/SVG/1.1/DTD/svg11.dtd">
<svg version="1.1" xmlns="http://www.w3.org/2000/svg" xmlns:xlink="http://www.w3.org/1999/xlink" x="0px" y="0px" width="34px"
	 height="34px" viewBox="0 0 34 34" enable-background="new 0 0 34 34" xml:space="preserve">
<g id="Layer_1" display="none">
	<path display="inline" fill="#FFFFFF" d="M24.486,5.617H8.898c-2.144,0-3.897,1.753-3.897,3.897v15.587
		c0,2.146,1.753,3.897,3.897,3.897h15.588c2.144,0,3.896-1.752,3.896-3.897V9.515C28.383,7.371,26.63,5.617,24.486,5.617z
		 M24.88,17.309h-3.804v10.229h-4.385V17.309h-2.112v-3.347h2.112v-2.173c0-2.954,1.273-4.71,4.747-4.71h4.001V10.7h-3.268
		c-0.97-0.001-1.091,0.506-1.091,1.45l-0.005,1.813h4.384L24.88,17.309L24.88,17.309z"/>
</g>
<g id="Layer_2">
	<path fill="#FFFFFF" d="M24.644,5.584H8.93c-2.161,0-3.929,1.768-3.929,3.929v15.713c0,2.163,1.768,3.929,3.929,3.929h15.714
		c2.161,0,3.929-1.766,3.929-3.929V9.513C28.572,7.352,26.805,5.584,24.644,5.584z M24.291,13.453
		c0.009,0.169,0.012,0.339,0.012,0.51c0,5.207-3.895,11.212-11.019,11.212c-2.186,0-4.222-0.652-5.936-1.771
		c0.302,0.037,0.612,0.055,0.923,0.055c1.815,0,3.484-0.631,4.809-1.687c-1.694-0.033-3.124-1.172-3.617-2.736
		c0.236,0.045,0.479,0.07,0.729,0.07c0.353,0,0.695-0.05,1.021-0.139c-1.771-0.361-3.107-1.955-3.107-3.863
		c0-0.017,0-0.033,0.001-0.049c0.522,0.294,1.118,0.471,1.753,0.492c-1.039-0.706-1.722-1.913-1.722-3.28
		c0-0.722,0.19-1.398,0.523-1.98c1.911,2.384,4.764,3.953,7.981,4.118c-0.064-0.289-0.1-0.59-0.1-0.898
		c0-2.176,1.734-3.941,3.872-3.941c1.114,0,2.121,0.479,2.827,1.245c0.883-0.177,1.71-0.504,2.46-0.956
		c-0.291,0.919-0.904,1.692-1.704,2.181c0.784-0.095,1.53-0.308,2.225-0.621c-0.52,0.791-1.177,1.484-1.933,2.04L24.291,13.453z"/>
</g>
</svg>
