<?xml version="1.0" encoding="utf-8"?>
<!-- Generator: Adobe Illustrator 16.0.0, SVG Export Plug-In . SVG Version: 6.00 Build 0)  -->
<!DOCTYPE svg PUBLIC "-//W3C//DTD SVG 1.1//EN" "http://www.w3.org/Graphics/SVG/1.1/DTD/svg11.dtd">
<svg version="1.1" xmlns="http://www.w3.org/2000/svg" xmlns:xlink="http://www.w3.org/1999/xlink" x="0px" y="0px" width="49.5px"
	 height="49.5px" viewBox="0 0 49.5 49.5" enable-background="new 0 0 49.5 49.5" xml:space="preserve">
<g id="reglas">
</g>
<g id="ciudad" display="none">
	<path display="inline" fill="#FFFFFF" d="M7.25,42.25h17.5v-35H7.25V42.25z M18.188,11.625h4.375V16h-4.375V11.625z M18.188,20.375
		h4.375v4.375h-4.375V20.375z M18.188,29.125h4.375v4.376h-4.375V29.125z M9.438,11.625h4.375V16H9.438V11.625z M9.438,20.375h4.375
		v4.375H9.438V20.375z M9.438,29.125h4.375v4.376H9.438V29.125z M26.938,18.188H42.25v2.188H26.938V18.188z M26.938,42.25h4.377
		V33.5h6.562v8.75h4.375V22.562H26.938V42.25z"/>
</g>
<g id="Artesanías" display="none">
	<g display="inline">
		<path fill="#FFFFFF" d="M26.63,21.174c-0.136-0.392-0.29-0.755-0.448-1.117c1.531-1.346,3.584-1.999,6.166-1.917
			c0.299,0.001,0.542-0.224,0.551-0.521c0.011-0.295-0.224-0.542-0.519-0.551c-2.753-0.081-4.978,0.602-6.68,1.999
			c-1.504-2.829-3.754-4.546-6.735-5.073c-0.287-0.055-0.57,0.142-0.621,0.434c-0.051,0.292,0.143,0.57,0.434,0.622
			c2.719,0.481,4.763,2.097,6.116,4.78c-0.399,0.429-0.775,0.89-1.098,1.418c-0.596,0.965-1.018,2.069-1.325,3.243
			c-0.459-0.62-0.979-1.156-1.583-1.566c-1.911-1.307-4.34-1.243-7.214,0.186c-0.265,0.134-0.374,0.455-0.241,0.72
			c0.131,0.264,0.455,0.372,0.718,0.241c2.501-1.248,4.563-1.333,6.133-0.262c0.744,0.509,1.353,1.273,1.861,2.19
			c-0.986,5.929,0.755,13.154,2.182,15.825c0.001,0,0.001,0,0.002,0.002c0.003,0.006,0.008,0.018,0.012,0.024
			c0.006,0.011,0.021,0.018,0.027,0.028c0.02,0.029,0.038,0.06,0.063,0.086c0.01,0.008,0.014,0.021,0.022,0.028
			c0.019,0.018,0.04,0.021,0.059,0.035c0.003,0.002,0.005,0.004,0.009,0.006c0.01,0.008,0.019,0.021,0.029,0.022
			c0.013,0.01,0.026,0.014,0.042,0.02c0.037,0.019,0.075,0.026,0.114,0.035c0.021,0.004,0.036,0.015,0.057,0.017
			c0.018,0.001,0.031,0.002,0.049,0.002l0,0l0,0h0.002c0.071,0,0.141-0.016,0.205-0.043c0.011-0.004,0.019-0.012,0.026-0.017
			c0.006-0.003,0.014-0.001,0.021-0.004c0.017-0.01,0.024-0.025,0.042-0.036c0.027-0.021,0.059-0.04,0.082-0.065
			c0.006-0.005,0.015-0.007,0.021-0.014c0.002-0.005,0.008-0.012,0.012-0.016c0.006-0.009,0.012-0.018,0.018-0.025
			C26.984,39.879,29.277,28.85,26.63,21.174z M24.705,21.812c0.202-0.328,0.426-0.633,0.658-0.917
			c0.083,0.211,0.176,0.409,0.251,0.63c1.938,5.61,1.022,13.297-0.148,17.276c0.044-3.439-0.225-9.228-2.214-13.042
			C23.537,24.314,23.998,22.96,24.705,21.812z M22.965,27.867c1.229,3.49,1.487,8.129,1.429,11.297
			C23.44,36.289,22.64,31.904,22.965,27.867z"/>
		<path fill="#FFFFFF" d="M31.745,20.744c0-0.849-0.691-1.542-1.542-1.542c-0.849,0-1.542,0.691-1.542,1.542
			c0,0.85,0.691,1.542,1.542,1.542S31.745,21.593,31.745,20.744z M30.205,21.749c-0.555,0-1.005-0.451-1.005-1.006
			c0-0.556,0.451-1.006,1.005-1.006c0.555,0,1.006,0.45,1.006,1.006C31.211,21.298,30.758,21.749,30.205,21.749z"/>
		<path fill="#FFFFFF" d="M36.371,21.253c0-0.849-0.691-1.542-1.542-1.542c-0.85,0-1.541,0.692-1.541,1.542
			c0,0.851,0.691,1.542,1.541,1.542C35.68,22.795,36.371,22.102,36.371,21.253z M33.824,21.253c0-0.554,0.452-1.006,1.006-1.006
			c0.555,0,1.007,0.45,1.007,1.006s-0.452,1.006-1.007,1.006C34.276,22.259,33.824,21.807,33.824,21.253z"/>
		<path fill="#FFFFFF" d="M38.306,16.554c-0.85,0-1.542,0.692-1.542,1.542c0,0.851,0.692,1.542,1.542,1.542s1.542-0.692,1.542-1.542
			C39.848,17.246,39.156,16.554,38.306,16.554z M38.306,19.101c-0.555,0-1.006-0.45-1.006-1.006c0-0.555,0.451-1.006,1.006-1.006
			s1.006,0.451,1.006,1.006C39.312,18.65,38.86,19.101,38.306,19.101z"/>
		<path fill="#FFFFFF" d="M31.478,16.064c0.851,0,1.542-0.692,1.542-1.543c0-0.85-0.692-1.542-1.542-1.542s-1.543,0.692-1.543,1.542
			C29.935,15.372,30.627,16.064,31.478,16.064z M31.478,13.518c0.554,0,1.006,0.45,1.006,1.005s-0.452,1.006-1.006,1.006
			s-1.007-0.451-1.007-1.006S30.924,13.518,31.478,13.518z"/>
		<path fill="#FFFFFF" d="M24.81,13.932c0.851,0,1.542-0.692,1.542-1.542s-0.693-1.542-1.542-1.542c-0.85,0-1.542,0.692-1.542,1.542
			S23.959,13.932,24.81,13.932z M24.81,11.385c0.556,0,1.006,0.451,1.006,1.006c0,0.556-0.451,1.006-1.006,1.006
			c-0.553,0-1.006-0.45-1.006-1.006C23.804,11.836,24.257,11.385,24.81,11.385z"/>
		<path fill="#FFFFFF" d="M20.143,10.615c0.851,0,1.542-0.692,1.542-1.542c0-0.851-0.691-1.542-1.542-1.542
			c-0.85,0-1.542,0.691-1.542,1.542C18.601,9.922,19.292,10.615,20.143,10.615z M20.143,8.068c0.555,0,1.006,0.45,1.006,1.005
			c0,0.556-0.452,1.006-1.006,1.006c-0.554,0-1.006-0.451-1.006-1.006C19.137,8.518,19.589,8.068,20.143,8.068z"/>
		<path fill="#FFFFFF" d="M16.375,13.518c0.85,0,1.542-0.692,1.542-1.542c0-0.851-0.692-1.542-1.542-1.542
			c-0.851,0-1.542,0.691-1.542,1.542C14.833,12.825,15.524,13.518,16.375,13.518z M16.375,10.971c0.555,0,1.006,0.45,1.006,1.005
			c0,0.556-0.451,1.006-1.006,1.006s-1.006-0.451-1.006-1.006C15.369,11.421,15.821,10.971,16.375,10.971z"/>
		<path fill="#FFFFFF" d="M13.099,17.337c0.851,0,1.542-0.691,1.542-1.542s-0.691-1.542-1.542-1.542
			c-0.85,0-1.542,0.692-1.542,1.542S12.249,17.337,13.099,17.337z M13.099,14.791c0.555,0,1.006,0.451,1.006,1.006
			c0,0.555-0.451,1.005-1.006,1.005c-0.554,0-1.006-0.451-1.006-1.005C12.093,15.242,12.545,14.791,13.099,14.791z"/>
		<path fill="#FFFFFF" d="M14.373,24.909c-0.85,0-1.542,0.691-1.542,1.542s0.692,1.541,1.542,1.541c0.851,0,1.542-0.69,1.542-1.541
			S15.223,24.909,14.373,24.909z M14.373,27.455c-0.554,0-1.006-0.45-1.006-1.006c0-0.555,0.452-1.007,1.006-1.007
			c0.555,0,1.006,0.453,1.006,1.007C15.378,27.005,14.927,27.455,14.373,27.455z"/>
		<path fill="#FFFFFF" d="M18.148,15.528c-0.851,0-1.542,0.691-1.542,1.541c0,0.851,0.691,1.542,1.542,1.542
			c0.85,0,1.542-0.692,1.542-1.542C19.69,16.219,18.999,15.528,18.148,15.528z M18.148,18.075c-0.555,0-1.006-0.451-1.006-1.006
			c0-0.555,0.451-1.006,1.006-1.006c0.554,0,1.006,0.451,1.006,1.006C19.154,17.624,18.703,18.075,18.148,18.075z"/>
		<path fill="#FFFFFF" d="M10.941,19.711c-0.851,0-1.542,0.692-1.542,1.542c0,0.851,0.691,1.542,1.542,1.542
			s1.542-0.691,1.542-1.542C12.483,20.403,11.792,19.711,10.941,19.711z M10.941,22.258c-0.554,0-1.005-0.451-1.005-1.006
			c0-0.556,0.451-1.006,1.005-1.006s1.006,0.45,1.006,1.006C11.947,21.807,11.495,22.258,10.941,22.258z"/>
		<path fill="#FFFFFF" d="M19.628,12.391c0,0.714,0.58,1.294,1.294,1.294s1.295-0.581,1.295-1.294c0-0.714-0.581-1.295-1.295-1.295
			S19.628,11.677,19.628,12.391z M21.682,12.391c0,0.418-0.34,0.758-0.759,0.758c-0.418,0-0.758-0.34-0.758-0.758
			s0.34-0.759,0.758-0.759C21.342,11.632,21.682,11.973,21.682,12.391z"/>
		<path fill="#FFFFFF" d="M18.849,20.396c0,0.714,0.58,1.294,1.293,1.294c0.714,0,1.295-0.582,1.295-1.294
			c0-0.714-0.581-1.295-1.295-1.295C19.429,19.101,18.849,19.682,18.849,20.396z M20.143,19.637c0.419,0,0.759,0.34,0.759,0.759
			c0,0.418-0.34,0.758-0.759,0.758c-0.417,0-0.757-0.34-0.757-0.758C19.385,19.978,19.725,19.637,20.143,19.637z"/>
		<path fill="#FFFFFF" d="M17.648,24.09c-0.6,0-1.087,0.487-1.087,1.087c0,0.601,0.488,1.088,1.087,1.088
			c0.601,0,1.089-0.487,1.089-1.088C18.736,24.577,18.247,24.09,17.648,24.09z M17.648,25.728c-0.304,0-0.551-0.247-0.551-0.551
			c0-0.305,0.247-0.553,0.551-0.553c0.304,0,0.553,0.248,0.553,0.553C18.201,25.48,17.952,25.728,17.648,25.728z"/>
		<path fill="#FFFFFF" d="M10.458,16.042c0-0.6-0.489-1.088-1.09-1.088c-0.6,0-1.087,0.488-1.087,1.088s0.487,1.088,1.087,1.088
			S10.458,16.642,10.458,16.042z M8.817,16.042c0-0.304,0.247-0.552,0.551-0.552c0.305,0,0.554,0.248,0.554,0.552
			c0,0.305-0.248,0.552-0.554,0.552C9.065,16.594,8.817,16.347,8.817,16.042z"/>
		<path fill="#FFFFFF" d="M32.36,22.489c-0.601,0-1.087,0.488-1.087,1.088s0.486,1.087,1.087,1.087s1.09-0.487,1.09-1.087
			S32.961,22.489,32.36,22.489z M32.36,24.128c-0.303,0-0.551-0.246-0.551-0.551s0.246-0.552,0.551-0.552
			c0.306,0,0.554,0.247,0.554,0.552S32.666,24.128,32.36,24.128z"/>
		<path fill="#FFFFFF" d="M38.304,20.335c-0.599,0-1.087,0.488-1.087,1.088c0,0.599,0.488,1.087,1.087,1.087
			c0.602,0,1.091-0.488,1.091-1.087C39.395,20.823,38.905,20.335,38.304,20.335z M38.304,21.974c-0.303,0-0.551-0.247-0.551-0.552
			c0-0.304,0.246-0.552,0.551-0.552c0.306,0,0.555,0.248,0.555,0.552C38.858,21.727,38.609,21.974,38.304,21.974z"/>
		<path fill="#FFFFFF" d="M15.102,19.101c-0.714,0-1.294,0.581-1.294,1.295c0,0.714,0.58,1.294,1.294,1.294s1.295-0.582,1.295-1.294
			C16.397,19.682,15.816,19.101,15.102,19.101z M15.102,21.154c-0.418,0-0.758-0.34-0.758-0.758c0-0.418,0.34-0.759,0.758-0.759
			c0.419,0,0.759,0.34,0.759,0.759C15.861,20.813,15.521,21.154,15.102,21.154z"/>
		<path fill="#FFFFFF" d="M10.396,24.128c-0.714,0-1.294,0.582-1.294,1.295s0.58,1.295,1.294,1.295s1.295-0.582,1.295-1.295
			C11.691,24.708,11.11,24.128,10.396,24.128z M10.396,26.181c-0.418,0-0.758-0.34-0.758-0.758s0.34-0.759,0.758-0.759
			c0.419,0,0.759,0.34,0.759,0.759C11.155,25.841,10.815,26.181,10.396,26.181z"/>
		<path fill="#FFFFFF" d="M35.037,18.364c0.714,0,1.294-0.581,1.294-1.294c0-0.714-0.58-1.295-1.294-1.295
			c-0.715,0-1.295,0.581-1.295,1.295C33.742,17.783,34.322,18.364,35.037,18.364z M35.037,16.311c0.419,0,0.758,0.34,0.758,0.759
			c0,0.418-0.339,0.758-0.758,0.758c-0.42,0-0.759-0.34-0.759-0.758C34.278,16.652,34.619,16.311,35.037,16.311z"/>
		<path fill="#FFFFFF" d="M36.063,23.101c-0.715,0-1.295,0.582-1.295,1.295c0,0.714,0.58,1.295,1.295,1.295
			c0.714,0,1.296-0.582,1.296-1.295C37.359,23.683,36.777,23.101,36.063,23.101z M36.063,25.155c-0.419,0-0.759-0.34-0.759-0.758
			c0-0.417,0.34-0.759,0.759-0.759c0.42,0,0.76,0.34,0.76,0.759C36.823,24.814,36.483,25.155,36.063,25.155z"/>
		<path fill="#FFFFFF" d="M27.903,16.064c0.714,0,1.296-0.582,1.296-1.294c0-0.714-0.582-1.295-1.296-1.295
			s-1.294,0.581-1.294,1.295C26.609,15.484,27.189,16.064,27.903,16.064z M27.903,14.012c0.419,0,0.759,0.34,0.759,0.759
			c0,0.418-0.34,0.758-0.759,0.758s-0.758-0.34-0.758-0.758C27.146,14.352,27.484,14.012,27.903,14.012z"/>
		<path fill="#FFFFFF" d="M28.308,11.641c0.714,0,1.295-0.582,1.295-1.294c0-0.714-0.581-1.295-1.295-1.295
			s-1.294,0.581-1.294,1.295C27.014,11.061,27.594,11.641,28.308,11.641z M28.308,9.588c0.419,0,0.759,0.34,0.759,0.759
			c0,0.418-0.34,0.758-0.759,0.758s-0.758-0.34-0.758-0.758C27.55,9.928,27.889,9.588,28.308,9.588z"/>
		<path fill="#FFFFFF" d="M32.49,10.971c0.851,0,1.541-0.692,1.541-1.542s-0.693-1.542-1.541-1.542
			c-0.851,0-1.543,0.692-1.543,1.542S31.64,10.971,32.49,10.971z M32.49,8.424c0.555,0,1.005,0.45,1.005,1.005
			c0,0.556-0.451,1.006-1.005,1.006c-0.556,0-1.007-0.451-1.007-1.006C31.484,8.874,31.938,8.424,32.49,8.424z"/>
		<path fill="#FFFFFF" d="M36.103,14.791c0.851,0,1.543-0.691,1.543-1.542c0-0.851-0.692-1.542-1.543-1.542
			c-0.848,0-1.541,0.691-1.541,1.542C34.562,14.1,35.253,14.791,36.103,14.791z M36.103,12.244c0.557,0,1.007,0.451,1.007,1.006
			c0,0.555-0.451,1.005-1.007,1.005c-0.554,0-1.005-0.45-1.005-1.005C35.098,12.695,35.549,12.244,36.103,12.244z"/>
	</g>
</g>
<g id="Automóviles" display="none">
	<path display="inline" fill="#FFFFFF" d="M42.5,18.778h-4.665l-0.282-3.288c0-2.655-2.157-4.813-4.813-4.813H16.699
		c-2.655,0-4.813,2.158-4.813,4.813l-0.143,3.288H6.94v2.726l4.333,0.303c-0.995,0.708-1.633,1.778-1.633,2.986v5.453
		c0,1.354,0.805,2.544,2.022,3.229v3.666c0,1.239,1.441,2.246,3.22,2.246c1.775,0,3.216-1.007,3.216-2.246v-3.044H30.79v3.044
		c0,1.239,1.438,2.246,3.217,2.246c1.776,0,3.215-1.007,3.215-2.246v-3.405c1.521-0.606,2.574-1.938,2.574-3.497v-5.45
		c0-1.209-0.639-2.278-1.632-2.986l4.336-0.301V18.778z M11.781,21.872l0.007-0.065C11.808,21.826,11.817,21.851,11.781,21.872z
		 M13.811,15.49c0-1.594,1.294-2.888,2.885-2.888h16.042c1.595,0,2.892,1.294,2.892,2.888v5.467
		c-0.083-0.007-0.159-0.012-0.245-0.012H14.052c-0.083,0-0.163,0.004-0.242,0.012V15.49z M18.384,27.227
		c0,1.503-1.22,2.72-2.719,2.72c-1.502,0-2.72-1.217-2.72-2.72c0-1.5,1.218-2.721,2.72-2.721
		C17.165,24.506,18.384,25.727,18.384,27.227z M36.527,27.227c0,1.503-1.223,2.72-2.721,2.72c-1.497,0-2.72-1.217-2.72-2.72
		c0-1.5,1.224-2.721,2.72-2.721C35.309,24.506,36.527,25.727,36.527,27.227z"/>
</g>
<g id="Bancos">
	<path fill="#FFFFFF" d="M24.668,7.667c-9.39,0-17.001,7.611-17.001,17c0,9.389,7.611,17,17.001,17c9.388,0,16.999-7.611,16.999-17
		C41.667,15.278,34.056,7.667,24.668,7.667z M24.668,38.268c-7.512,0-13.601-6.09-13.601-13.601c0-7.51,6.089-13.6,13.601-13.6
		c7.51,0,13.6,6.089,13.6,13.6C38.268,32.178,32.178,38.268,24.668,38.268z M25.801,23.534V19h4.533v-2.267h-4.533v-2.267h-2.267
		v2.267H19v9.067h4.533v4.533H19v2.267h4.533v2.267h2.267v-2.267h4.533v-9.067H25.801z M23.534,23.534h-2.267V19h2.267V23.534z
		 M28.067,30.334h-2.267v-4.533h2.267V30.334z"/>
</g>
<g id="Layer_6" display="none">
</g>
</svg>
