<?xml version="1.0" encoding="utf-8"?>
<!-- Generator: Adobe Illustrator 16.0.0, SVG Export Plug-In . SVG Version: 6.00 Build 0)  -->
<!DOCTYPE svg PUBLIC "-//W3C//DTD SVG 1.1//EN" "http://www.w3.org/Graphics/SVG/1.1/DTD/svg11.dtd">
<svg version="1.1" id="Layer_1" xmlns="http://www.w3.org/2000/svg" xmlns:xlink="http://www.w3.org/1999/xlink" x="0px" y="0px"
	 width="624px" height="94px" viewBox="0 0 624 94" enable-background="new 0 0 624 94" xml:space="preserve">
<path opacity="0.76" fill="#474747" stroke="#FFFFFF" stroke-miterlimit="10" enable-background="new    " d="M624,94
	c-4,0-6.597-0.176-14.732-0.176H14.733c-8.137,0-10.733,0-14.733,0V0c6.597,0,6.597,0,14.733,0h594.533C617.403,0,620.5,0,624,0V94z
	"/>
<path fill="#A5B7BF" d="M595.732,38.601c0.795,0.775,8.554,8.922,8.554,8.922c0.425,0.414,0.637,0.955,0.637,1.498
	c0,0.541-0.212,1.082-0.637,1.496c0,0-7.759,8.146-8.554,8.922c-0.795,0.774-2.222,0.83-3.07,0c-0.85-0.826-0.915-1.979,0-2.992
	l7.12-7.426l-7.118-7.426c-0.914-1.014-0.849-2.168,0-2.995C593.512,37.774,594.94,37.826,595.732,38.601z"/>
<g id="Layer_3">
	<g>
		<path fill="#FFFFFF" d="M39.849,24.062c2.176,0,3.939,1.76,3.939,3.938c0,2.173-1.764,3.937-3.939,3.937S35.91,30.173,35.91,28
			C35.91,25.821,37.674,24.062,39.849,24.062z"/>
		<path fill="#FFFFFF" d="M67.171,28.333h-9.163c-1.891,0-4.33,0.777-5.778,2.23l-8.479,8.469v-2.481c0-5.289-7.797-5.231-7.797,0
			v10.12h0.01l-7.365,7.376c-0.696,0.691-0.781,0.725-2.149,0.725h-4.502c-4.532,0-7.252,4.069-7.252,7.527
			c0,3.455,2.721,7.817,7.653,7.817c0,0,6.133,0,8.029,0c1.896,0,4.187-0.726,6.082-2.507l23.496-23.427
			c0.501-0.447,0.781-0.584,1.645-0.584c0,0,3.239,0,5.801,0c2.793,0,6.746-3.166,6.746-7.729
			C74.146,31.356,70.164,28.345,67.171,28.333z M30.836,57.421l24.077-24.074c0.992-0.988,1.971-1.117,3.655-1.117h8.241
			c2.008,0,3.356,2.242,3.356,3.582c0,1.338-0.959,3.834-3.409,3.834h-4.962c-2.093,0-3.023,0.293-4.23,1.502L33.886,64.822
			c-0.957,0.959-2.168,1.338-3.729,1.338h-7.809c-2.004,0-3.774-1.692-3.774-3.924c0-2.229,1.688-3.479,3.431-3.479"/>
	</g>
</g>
<rect x="104.5" y="32.5" fill="none" width="420" height="42"/>
<text transform="matrix(1 0 0 1 104.4998 58.0605)" fill="#FFFFFF" font-family="'MyriadPro-Regular'" font-size="36">Buscar Centros Comerciales</text>
</svg>
