<?xml version="1.0" encoding="utf-8"?>
<!-- Generator: Adobe Illustrator 16.0.0, SVG Export Plug-In . SVG Version: 6.00 Build 0)  -->
<!DOCTYPE svg PUBLIC "-//W3C//DTD SVG 1.1//EN" "http://www.w3.org/Graphics/SVG/1.1/DTD/svg11.dtd">
<svg version="1.1" id="Layer_1" xmlns="http://www.w3.org/2000/svg" xmlns:xlink="http://www.w3.org/1999/xlink" x="0px" y="0px"
	 width="17.375px" height="17px" viewBox="18.875 15 17.375 17" enable-background="new 18.875 15 17.375 17" xml:space="preserve">
<path opacity="0.46" d="M29.567,24.911c-1.79-0.093-3.752,0.316-4.389,0.926c-0.667,0.639,0.273,1.377,0.978,1.897
	c0.001,0.002,0.117,0.083,0.352,0.096c0,0,0.021,0.001,0.021,0.001c0.234,0.013,0.499-0.05,0.505-0.051
	c1.664-0.398,3.969-0.966,4.636-1.605C32.307,25.565,31.357,25.005,29.567,24.911z"/>
<path fill="none" stroke="#FFFFFF" stroke-miterlimit="10" d="M26.506,23.973c0.896,0,1.625-0.729,1.625-1.625
	c0-0.896-0.729-1.625-1.625-1.625s-1.625,0.729-1.625,1.625C24.881,23.244,25.609,23.973,26.506,23.973z M26.506,20.994
	c0.746,0,1.354,0.606,1.354,1.354c0,0.746-0.606,1.354-1.354,1.354c-0.747,0-1.354-0.607-1.354-1.354
	C25.152,21.602,25.759,20.994,26.506,20.994L26.506,20.994z M26.506,19.167c-1.793,0-3.25,1.439-3.25,3.249
	c0,1.896,1.625,3.836,2.81,5.198c0.005,0.006,0.194,0.219,0.43,0.219c0.001,0,0.021,0,0.021,0c0.234,0,0.425-0.213,0.43-0.219
	c1.185-1.362,2.81-3.302,2.81-5.198C29.756,20.606,28.298,19.167,26.506,19.167z"/>
<path opacity="0.46" d="M26.506,23.973c0.896,0,1.625-0.729,1.625-1.625c0-0.896-0.729-1.625-1.625-1.625s-1.625,0.729-1.625,1.625
	C24.881,23.244,25.609,23.973,26.506,23.973z M26.506,20.994c0.746,0,1.354,0.606,1.354,1.354c0,0.746-0.606,1.354-1.354,1.354
	c-0.747,0-1.354-0.607-1.354-1.354C25.152,21.602,25.759,20.994,26.506,20.994L26.506,20.994z M26.506,19.167
	c-1.793,0-3.25,1.439-3.25,3.249c0,1.896,1.625,3.836,2.81,5.198c0.005,0.006,0.194,0.219,0.43,0.219c0.001,0,0.021,0,0.021,0
	c0.234,0,0.425-0.213,0.43-0.219c1.185-1.362,2.81-3.302,2.81-5.198C29.756,20.606,28.298,19.167,26.506,19.167z M26.537,27.26
	c-0.006,0.005-0.021,0.017-0.036,0.026c-0.003-0.008-0.022-0.023-0.035-0.036c-0.992-1.142-2.668-3.069-2.668-4.833
	c0-1.493,1.215-2.709,2.708-2.709c1.494,0,2.708,1.216,2.708,2.709C29.214,24.181,27.539,26.108,26.537,27.26L26.537,27.26z"/>
</svg>
