<?xml version="1.0" encoding="utf-8"?>
<!-- Generator: Adobe Illustrator 16.0.0, SVG Export Plug-In . SVG Version: 6.00 Build 0)  -->
<!DOCTYPE svg PUBLIC "-//W3C//DTD SVG 1.1//EN" "http://www.w3.org/Graphics/SVG/1.1/DTD/svg11.dtd">
<svg version="1.1" id="Layer_1" xmlns="http://www.w3.org/2000/svg" xmlns:xlink="http://www.w3.org/1999/xlink" x="0px" y="0px"
	 width="817.5px" height="104.672px" viewBox="0 0 817.5 104.672" enable-background="new 0 0 817.5 104.672" xml:space="preserve">
<rect fill="#616161" width="817.5" height="104.672"/>
<g>
	
		<image overflow="visible" opacity="0.26" enable-background="new    " width="120" height="89" xlink:href="A95AC831.png"  transform="matrix(0.9917 0 0 0.9888 681.792 16.8369)">
	</image>
	<g>
		<g>
			<polygon fill="#FFFFFF" points="775.052,40.895 775.052,61.549 747.165,54.284 747.165,62.1 719.28,54.284 719.554,61.945 
				697.663,54.284 691.393,54.284 691.393,89.588 713.424,89.588 725.173,89.588 758.055,89.588 758.055,74.729 768.162,74.729 
				768.162,89.588 791.503,89.588 791.503,40.895 			"/>
			<g>
				<path fill="#FFFFFF" d="M691.421,19.281h17.261v17.263h-3.451v-6.905h-10.356v6.905h-3.453V19.281L691.421,19.281z
					 M705.229,26.185v-3.452h-10.355v3.452H705.229z"/>
				<path fill="#FFFFFF" d="M711.47,19.281h17.261v10.357h-13.809v6.905h-3.452V19.281L711.47,19.281z M725.279,26.185v-3.452
					h-10.356v3.452H725.279z"/>
				<path fill="#FFFFFF" d="M734.972,33.09h10.355v3.453H731.52V19.281h3.452V33.09L734.972,33.09z"/>
				<path fill="#FFFFFF" d="M748.117,19.281h3.453v17.263h-3.453V19.281z"/>
				<path fill="#FFFFFF" d="M754.358,19.281h3.451v6.904h10.355v3.453H757.81v6.905h-3.451V19.281z M768.168,19.281v6.904h3.451
					v-6.904H768.168z M771.619,29.638h-3.451v6.905h3.451V29.638z"/>
				<path fill="#FFFFFF" d="M791.67,19.281v17.263h-17.262V19.281H791.67z M788.218,33.09V22.733H777.86V33.09H788.218z"/>
			</g>
		</g>
	</g>
</g>
</svg>
